%!PS-Adobe-2.0
%%Title: : c1
%%Creator: ROOT Version 5.34/11
%%CreationDate: Wed Dec 11 20:21:02 2013
%%Orientation: Landscape
%%EndComments
%%BeginProlog
/s {stroke} def /l {lineto} def /m {moveto} def /t {translate} def
/r {rotate} def /rl {roll}  def /R {repeat} def
/d {rlineto} def /rm {rmoveto} def /gr {grestore} def /f {eofill} def
/c {setrgbcolor} def /black {0 setgray} def /sd {setdash} def
/cl {closepath} def /sf {scalefont setfont} def /lw {setlinewidth} def
/box {m dup 0 exch d exch 0 d 0 exch neg d cl} def
/NC{systemdict begin initclip end}def/C{NC box clip newpath}def
/bl {box s} def /bf {box f} def /Y { 0 exch d} def /X { 0 d} def 
/K {{pop pop 0 moveto} exch kshow} bind def
/ita {/ang 15 def gsave [1 0 ang dup sin exch cos div 1 0 0] concat} def 
/mp {newpath /y exch def /x exch def} def
/side {[w .77 mul w .23 mul] .385 w mul sd w 0 l currentpoint t -144 r} def
/mr {mp x y w2 0 360 arc} def /m24 {mr s} def /m20 {mr f} def
/mb {mp x y w2 add m w2 neg 0 d 0 w neg d w 0 d 0 w d cl} def
/mt {mp x y w2 add m w2 neg w neg d w 0 d cl} def
/m21 {mb f} def /m25 {mb s} def /m22 {mt f} def /m26{mt s} def
/m23 {mp x y w2 sub m w2 w d w neg 0 d cl f} def
/m27 {mp x y w2 add m w3 neg w2 neg d w3 w2 neg d w3 w2 d cl s} def
/m28 {mp x w2 sub y w2 sub w3 add m w3 0 d  0 w3 neg d w3 0 d 0 w3 d w3 0 d  0 w3 d w3 neg 0 d 0 w3 d w3 neg 0 d 0 w3 neg d w3 neg 0 d cl s } def
/m29 {mp gsave x w2 sub y w2 add w3 sub m currentpoint t 4 {side} repeat cl fill gr} def
/m30 {mp gsave x w2 sub y w2 add w3 sub m currentpoint t 4 {side} repeat cl s gr} def
/m31 {mp x y w2 sub m 0 w d x w2 sub y m w 0 d x w2 sub y w2 add m w w neg d x w2 sub y w2 sub m w w d s} def
/m32 {mp x y w2 sub m w2 w d w neg 0 d cl s} def
/m33 {mp x y w2 add m w3 neg w2 neg d w3 w2 neg d w3 w2 d cl f} def
/m34 {mp x w2 sub y w2 sub w3 add m w3 0 d  0 w3 neg d w3 0 d 0 w3 d w3 0 d  0 w3 d w3 neg 0 d 0 w3 d w3 neg 0 d 0 w3 neg d w3 neg 0 d cl f } def
/m2 {mp x y w2 sub m 0 w d x w2 sub y m w 0 d s} def
/m5 {mp x w2 sub y w2 sub m w w d x w2 sub y w2 add m w w neg d s} def
/reEncode {exch findfont dup length dict begin {1 index /FID eq  {pop pop} {def} ifelse } forall /Encoding exch def currentdict end dup /FontName get exch definefont pop } def [/Times-Bold /Times-Italic /Times-BoldItalic /Helvetica /Helvetica-Oblique
 /Helvetica-Bold /Helvetica-BoldOblique /Courier /Courier-Oblique /Courier-Bold /Courier-BoldOblique /Times-Roman /AvantGarde-Book /AvantGarde-BookOblique /AvantGarde-Demi /AvantGarde-DemiOblique /Bookman-Demi /Bookman-DemiItalic /Bookman-Light
 /Bookman-LightItalic /Helvetica-Narrow /Helvetica-Narrow-Bold /Helvetica-Narrow-BoldOblique /Helvetica-Narrow-Oblique /NewCenturySchlbk-Roman /NewCenturySchlbk-Bold /NewCenturySchlbk-BoldItalic /NewCenturySchlbk-Italic /Palatino-Bold
 /Palatino-BoldItalic /Palatino-Italic /Palatino-Roman ] {ISOLatin1Encoding reEncode } forall/Zone {/iy exch def /ix exch def  ix 1 sub  3144 mul  1 iy sub  2224 mul t} def
%%EndProlog
%%BeginSetup
%%EndSetup
newpath  gsave  90 r 0 -594 t  28 20 t .25 .25 scale  gsave 
%%Page: 1 1
 gsave  gsave 
 1 1 Zone
 gsave  0 0 t black[  ] 0 sd 3 lw 1 1 1 c 2948 1999 0 0 bf black 1 1 1 c 2359 1597 271 224 bf black 2359 1597 271 224 bl 1 1 1 c 2359 1597 271 224 bf black 2359 1597 271 224 bl 1 0 0 c 1 1 1 c black 1 0 0 c 271 224 m 7 X 1 Y 13 X 1 Y 14 X -1 Y 7 X 8
 Y 6 X 24 Y 7 X 23 Y 13 X -12 Y 7 X -6 Y 7 X 17 Y 7 X 135 Y 6 X 389 Y 7 X 538 Y 7 X 357 Y 7 X 47 Y 6 X -80 Y 7 X -50 Y 7 X -27 Y 7 X -35 Y 6 X -29 Y 7 X -17 Y 7 X -20 Y 7 X -28 Y 6 X -26 Y 7 X -20 Y 7 X -12 Y 7 X -6 Y 6 X -10 Y 7 X -15 Y 7 X -17 Y 7
 X -20 Y 6 X -23 Y 7 X -22 Y 7 X -18 Y 6 X -13 Y 7 X -10 Y 7 X -12 Y 7 X -13 Y 6 X -12 Y 7 X -7 Y 7 X -3 Y 7 X -8 Y 6 X -18 Y 7 X -21 Y 7 X -14 Y 7 X -5 Y 13 X -3 Y 7 X -8 Y 7 X -11 Y 6 X -11 Y 7 X -9 Y 7 X -9 Y 7 X -8 Y 6 X 1 Y 7 X 10 Y 7 X 2 Y 7 X
 -14 Y 6 X -19 Y 7 X -13 Y 7 X -7 Y 6 X -4 Y 7 X -2 Y 7 X -4 Y 7 X -4 Y 6 X -1 Y 7 X -4 Y 7 X -9 Y 7 X -6 Y 6 X 2 Y 14 X -10 Y 7 X -16 Y 6 X -12 Y 7 X -7 Y 7 X -4 Y 7 X -4 Y 6 X -6 Y 7 X -2 Y 7 X 4 Y 7 X 3 Y 6 X -5 Y 7 X -7 Y 14 X 5 Y 6 X 2 Y 7 X -4
 Y 7 X -4 Y 6 X -1 Y 7 X -1 Y 7 X -6 Y 7 X -10 Y 6 X -14 Y 7 X -13 Y 7 X -7 Y 7 X 1 Y 6 X 6 Y 7 X 7 Y 7 X -3 Y 7 X -14 Y 6 X -12 Y 7 X 5 Y 7 X 14 Y 7 X 4 Y 6 X -12 Y 7 X -9 Y 14 X -1 Y 6 X -5 Y 7 X -4 Y 14 X 2 Y 13 X -5 Y 7 X -11 Y 6 X -14 Y 7 X -11
 Y 7 X -4 Y 7 X 4 Y 6 X 10 Y 7 X 11 Y 7 X 3 Y 7 X -9 Y 6 X -10 Y 7 X -6 Y 7 X -2 Y 7 X -1 Y 6 X -3 Y 7 X -8 Y 7 X -6 Y 7 X 1 Y 6 X 6 Y 7 X 1 Y 7 X -7 Y 7 X -5 Y 6 X 2 Y 7 X 1 Y 7 X -6 Y 7 X -7 Y 6 X -3 Y 7 X 2 Y 7 X 9 Y 6 X 9 Y 7 X -2 Y 7 X -13 Y 7 X
 -12 Y 6 X -5 Y 7 X 2 Y 7 X -2 Y 7 X -10 Y 6 X -11 Y 14 X 12 Y 7 X 12 Y 6 X 5 Y 7 X -4 Y 7 X -5 Y 7 X -3 Y 6 X -2 Y 7 X -4 Y 7 X -5 Y 7 X -5 Y 6 X -4 Y 7 X -4 Y 7 X 1 Y 7 X 6 Y 6 X 6 Y 7 X 4 Y 7 X -1 Y 6 X -3 Y 7 X -6 Y 7 X -7 Y 7 X -6 Y 6 X -3 Y 7 X
 2 Y 7 X 6 Y 7 X 2 Y 6 X -7 Y 7 X -6 Y 7 X 3 Y 7 X 7 Y 6 X 2 Y 7 X -5 Y 7 X -8 Y 7 X -7 Y 6 X -5 Y 7 X -4 Y 7 X -1 Y 7 X 5 Y 6 X 9 Y 7 X 7 Y 14 X -6 Y 6 X -10 Y 7 X -11 Y 7 X -7 Y 6 X 2 Y 7 X 6 Y 14 X -4 Y 6 X -6 Y 7 X -5 Y 7 X -3 Y 7 X 2 Y 6 X 9 Y 7
 X 12 Y 7 X 8 Y 7 X -2 Y 6 X -10 Y 7 X -9 Y 7 X -4 Y 7 X -3 Y 6 X -5 Y 7 X -6 Y 7 X -4 Y 7 X -2 Y 13 X 4 Y 14 X -5 Y 6 X -6 Y 7 X 1 Y 7 X 4 Y 6 X 3 Y 7 X 2 Y 7 X 3 Y 7 X 3 Y 6 X -1 Y 7 X -2 Y 7 X -3 Y 7 X -8 Y 6 X -11 Y 7 X -1 Y 7 X 8 Y 7 X 5 Y 6 X
 -7 Y 7 X -9 Y 7 X 3 Y 7 X 13 Y 6 X 5 Y 7 X -9 Y 7 X -12 Y 7 X -3 Y 6 X 6 Y 7 X 10 Y 7 X 4 Y 7 X -3 Y 6 X -8 Y 7 X -7 Y 7 X -1 Y 7 X 3 Y 6 X 2 Y 7 X -2 Y 7 X -4 Y 6 X -3 Y 7 X 1 Y 7 X 5 Y 7 X 5 Y 6 X 2 Y 7 X 1 Y 7 X 1 Y 7 X -3 Y 6 X -6 Y 7 X -2 Y 7 X
 7 Y 7 X 8 Y 6 X 3 Y 7 X -2 Y 7 X -5 Y 7 X -8 Y 6 X -9 Y 7 X -3 Y 7 X 3 Y 7 X 4 Y 6 X 2 Y 7 X -5 Y 7 X -11 Y 7 X -10 Y 6 X -2 Y 7 X 7 Y 7 X 11 Y 6 X 6 Y 7 X -3 Y 7 X -14 Y 7 X -13 Y 6 X 1 Y 7 X 13 Y 7 X 9 Y 7 X -3 Y 6 X -6 Y 14 X 3 Y 7 X 2 Y 6 X -2 Y
 7 X -5 Y 14 X 3 Y 6 X -1 Y 7 X -5 Y 7 X -4 Y 7 X -1 Y 27 X 1 Y 6 X -1 Y 7 X 1 Y 7 X 7 Y 6 X 8 Y 7 X -2 Y 7 X -11 Y 7 X -8 Y 6 X -1 Y 7 X 2 Y 7 X 4 Y 13 X -2 Y 7 X -4 Y 7 X -5 Y 7 X -5 Y 6 X -2 Y 7 X 5 Y 7 X 6 Y 7 X 2 Y 6 X -4 Y 7 X -9 Y 7 X -6 Y 7 X
 3 Y 6 X 5 Y 7 X 3 Y 14 X -1 Y 6 X -3 Y 7 X -4 Y 7 X -2 Y 6 X 3 Y 14 X -4 Y 7 X -6 Y 6 X -1 Y 7 X 3 Y 7 X 5 Y 7 X 2 Y 6 X -3 Y 7 X -3 Y 7 X 3 Y 7 X 12 Y 6 X s black 271 224 m 2359 X s
 gsave  2948 1999 0 0 C 2410.1 97.4206 t 0 r /Helvetica findfont 63.5352 sf 0 0 m (log\(P/d\)) show NC gr  271 272 m -48 Y s 338 248 m -24 Y s 406 248 m -24 Y s 473 248 m -24 Y s 541 248 m -24 Y s 608 272 m -48 Y s 676 248 m -24 Y s 743 248 m -24 Y s
 810 248 m -24 Y s 878 248 m -24 Y s 945 272 m -48 Y s 1013 248 m -24 Y s 1080 248 m -24 Y s 1147 248 m -24 Y s 1215 248 m -24 Y s 1282 272 m -48 Y s 1350 248 m -24 Y s 1417 248 m -24 Y s 1484 248 m -24 Y s 1552 248 m -24 Y s 1619 272 m -48 Y s 1687
 248 m -24 Y s 1754 248 m -24 Y s 1821 248 m -24 Y s 1889 248 m -24 Y s 1956 272 m -48 Y s 2024 248 m -24 Y s 2091 248 m -24 Y s 2159 248 m -24 Y s 2226 248 m -24 Y s 2293 272 m -48 Y s 2361 248 m -24 Y s 2428 248 m -24 Y s 2496 248 m -24 Y s 2563
 248 m -24 Y s 2630 272 m -48 Y s
 gsave  2948 1999 0 0 C 254.141 160.956 t 0 r /Helvetica findfont 63.5352 sf 0 0 m (0) show NC gr 
 gsave  2948 1999 0 0 C 559.109 160.956 t 0 r /Helvetica findfont 63.5352 sf 0 0 m (0.5) show NC gr 
 gsave  2948 1999 0 0 C 931.849 160.956 t 0 r /Helvetica findfont 63.5352 sf 0 0 m (1) show NC gr 
 gsave  2948 1999 0 0 C 1232.58 160.956 t 0 r /Helvetica findfont 63.5352 sf 0 0 m (1.5) show NC gr 
 gsave  2948 1999 0 0 C 1601.09 160.956 t 0 r /Helvetica findfont 63.5352 sf 0 0 m (2) show NC gr 
 gsave  2948 1999 0 0 C 1906.05 160.956 t 0 r /Helvetica findfont 63.5352 sf 0 0 m (2.5) show NC gr 
 gsave  2948 1999 0 0 C 2274.56 160.956 t 0 r /Helvetica findfont 63.5352 sf 0 0 m (3) show NC gr 
 gsave  2948 1999 0 0 C 2583.76 160.956 t 0 r /Helvetica findfont 63.5352 sf 0 0 m (3.5) show NC gr  271 224 m 1597 Y s
 gsave  2948 1999 0 0 C 97.4206 1287.65 t 90 r /Helvetica findfont 63.5352 sf 0 0 m (Number of O\255Stars) show NC gr  342 224 m -71 X s 306 263 m -35 X s 306 302 m -35 X s 306 341 m -35 X s 306 380 m -35 X s 342 419 m -71 X s 306 458 m -35 X s 306
 497 m -35 X s 306 536 m -35 X s 306 575 m -35 X s 342 614 m -71 X s 306 653 m -35 X s 306 692 m -35 X s 306 731 m -35 X s 306 770 m -35 X s 342 809 m -71 X s 306 848 m -35 X s 306 886 m -35 X s 306 925 m -35 X s 306 964 m -35 X s 342 1003 m -71 X s
 306 1042 m -35 X s 306 1081 m -35 X s 306 1120 m -35 X s 306 1159 m -35 X s 342 1198 m -71 X s 306 1237 m -35 X s 306 1276 m -35 X s 306 1315 m -35 X s 306 1354 m -35 X s 342 1393 m -71 X s 306 1432 m -35 X s 306 1471 m -35 X s 306 1510 m -35 X s
 306 1548 m -35 X s 342 1587 m -71 X s 306 1626 m -35 X s 306 1665 m -35 X s 306 1704 m -35 X s 306 1743 m -35 X s 342 1782 m -71 X s 342 1782 m -71 X s 306 1821 m -35 X s
 gsave  2948 1999 0 0 C 220.255 199.077 t 0 r /Helvetica findfont 63.5352 sf 0 0 m (0) show NC gr 
 gsave  2948 1999 0 0 C 148.249 393.918 t 0 r /Helvetica findfont 63.5352 sf 0 0 m (500) show NC gr 
 gsave  2948 1999 0 0 C 114.363 588.759 t 0 r /Helvetica findfont 63.5352 sf 0 0 m (1000) show NC gr 
 gsave  2948 1999 0 0 C 114.363 783.6 t 0 r /Helvetica findfont 63.5352 sf 0 0 m (1500) show NC gr 
 gsave  2948 1999 0 0 C 114.363 978.441 t 0 r /Helvetica findfont 63.5352 sf 0 0 m (2000) show NC gr 
 gsave  2948 1999 0 0 C 114.363 1173.28 t 0 r /Helvetica findfont 63.5352 sf 0 0 m (2500) show NC gr 
 gsave  2948 1999 0 0 C 114.363 1368.12 t 0 r /Helvetica findfont 63.5352 sf 0 0 m (3000) show NC gr 
 gsave  2948 1999 0 0 C 114.363 1562.96 t 0 r /Helvetica findfont 63.5352 sf 0 0 m (3500) show NC gr 
 gsave  2948 1999 0 0 C 114.363 1757.81 t 0 r /Helvetica findfont 63.5352 sf 0 0 m (4000) show NC gr  0 0 1 c 1 1 1 c black 0 0 1 c 271 224 m 7 X 1 Y 13 X 1 Y 14 X -1 Y 7 X 7 Y 6 X 22 Y 7 X 21 Y 13 X -12 Y 7 X -5 Y 7 X 16 Y 7 X 125 Y 6 X 357 Y 7 X
 492 Y 7 X 327 Y 7 X 43 Y 6 X -74 Y 7 X -48 Y 7 X -26 Y 7 X -31 Y 6 X -25 Y 7 X -18 Y 7 X -21 Y 7 X -24 Y 6 X -23 Y 7 X -15 Y 7 X -8 Y 7 X -6 Y 6 X -13 Y 7 X -16 Y 7 X -18 Y 7 X -19 Y 6 X -20 Y 7 X -19 Y 7 X -17 Y 6 X -14 Y 7 X -12 Y 7 X -11 Y 7 X
 -11 Y 6 X -9 Y 7 X -5 Y 7 X -1 Y 7 X -6 Y 6 X -18 Y 7 X -23 Y 7 X -17 Y 7 X -7 Y 6 X -1 Y 7 X -1 Y 7 X -7 Y 7 X -12 Y 6 X -9 Y 7 X -6 Y 7 X -9 Y 7 X -11 Y 6 X -2 Y 7 X 6 Y 7 X 2 Y 7 X -11 Y 6 X -17 Y 7 X -13 Y 7 X -6 Y 6 X -1 Y 7 X 1 Y 7 X -4 Y 7 X
 -6 Y 6 X -3 Y 7 X -5 Y 7 X -9 Y 7 X -5 Y 6 X 4 Y 7 X 4 Y 7 X -9 Y 7 X -17 Y 6 X -17 Y 7 X -10 Y 7 X -5 Y 7 X -3 Y 6 X -4 Y 7 X -1 Y 7 X 6 Y 7 X 5 Y 6 X -5 Y 7 X -9 Y 14 X 9 Y 6 X 4 Y 7 X -8 Y 7 X -10 Y 6 X -5 Y 7 X -3 Y 7 X -4 Y 7 X -8 Y 6 X -10 Y 7
 X -10 Y 7 X -6 Y 7 X 1 Y 6 X 5 Y 7 X 3 Y 7 X -5 Y 7 X -12 Y 6 X -10 Y 7 X 4 Y 7 X 10 Y 13 X -14 Y 7 X -10 Y 14 X 2 Y 6 X -3 Y 7 X -4 Y 7 X -1 Y 7 X 3 Y 6 X 3 Y 7 X -3 Y 7 X -10 Y 6 X -15 Y 7 X -13 Y 7 X -3 Y 7 X 5 Y 6 X 10 Y 7 X 8 Y 7 X 1 Y 7 X -10
 Y 6 X -13 Y 7 X -10 Y 7 X -3 Y 7 X 3 Y 6 X 6 Y 7 X -4 Y 7 X -10 Y 7 X -5 Y 6 X 6 Y 7 X 2 Y 7 X -6 Y 7 X -7 Y 6 X 1 Y 7 X -1 Y 7 X -7 Y 7 X -8 Y 6 X -3 Y 7 X 4 Y 7 X 10 Y 6 X 10 Y 7 X -2 Y 7 X -13 Y 7 X -13 Y 6 X -4 Y 14 X -5 Y 7 X -15 Y 6 X -14 Y 14
 X 15 Y 7 X 20 Y 6 X 12 Y 7 X -1 Y 7 X -11 Y 7 X -9 Y 6 X -6 Y 7 X -3 Y 7 X -4 Y 7 X -3 Y 6 X -3 Y 7 X -2 Y 7 X -3 Y 13 X 1 Y 7 X 2 Y 7 X 1 Y 6 X -4 Y 7 X -9 Y 7 X -13 Y 7 X -9 Y 6 X 1 Y 7 X 13 Y 7 X 17 Y 7 X 7 Y 6 X -6 Y 7 X -6 Y 7 X 3 Y 7 X 5 Y 6 X
 1 Y 7 X -5 Y 7 X -8 Y 7 X -10 Y 6 X -7 Y 7 X -4 Y 7 X -4 Y 7 X -1 Y 6 X 3 Y 7 X 6 Y 7 X 4 Y 7 X -2 Y 6 X -9 Y 7 X -14 Y 7 X -9 Y 6 X -1 Y 7 X 2 Y 7 X -5 Y 7 X -8 Y 6 X -5 Y 7 X -3 Y 7 X -3 Y 7 X -2 Y 6 X 1 Y 7 X 8 Y 7 X 7 Y 7 X -4 Y 6 X -14 Y 7 X
 -14 Y 7 X -9 Y 7 X -5 Y 6 X -6 Y 7 X -6 Y 7 X -5 Y 7 X -2 Y 6 X 3 Y 7 X 6 Y 7 X 2 Y 13 X 4 Y 7 X 11 Y 7 X 15 Y 6 X 15 Y 7 X 11 Y 7 X 11 Y 7 X 11 Y 6 X 8 Y 7 X 3 Y 7 X -2 Y 7 X -7 Y 6 X -8 Y 7 X 1 Y 7 X 9 Y 7 X 7 Y 6 X -7 Y 7 X -9 Y 7 X 3 Y 7 X 13 Y
 6 X 5 Y 7 X -10 Y 7 X -13 Y 7 X -2 Y 6 X 7 Y 7 X 8 Y 7 X 3 Y 7 X -6 Y 6 X -10 Y 7 X -9 Y 7 X -2 Y 7 X 4 Y 6 X 3 Y 7 X -2 Y 7 X -3 Y 6 X -2 Y 27 X -1 Y 7 X -1 Y 7 X -1 Y 7 X -6 Y 6 X -11 Y 7 X -4 Y 7 X 7 Y 7 X 7 Y 6 X -1 Y 7 X -5 Y 7 X -4 Y 7 X -6 Y
 6 X -6 Y 7 X -2 Y 7 X -2 Y 7 X -5 Y 6 X -8 Y 7 X -9 Y 7 X -8 Y 7 X -6 Y 6 X -3 Y 14 X 2 Y 6 X -3 Y 7 X -14 Y 7 X -20 Y 7 X -13 Y 6 X 5 Y 7 X 13 Y 7 X 6 Y 7 X -9 Y 6 X -13 Y 7 X -6 Y 7 X -1 Y 13 X -3 Y 7 X -5 Y 7 X -6 Y 7 X -6 Y 6 X -6 Y 7 X -5 Y 7 X
 -2 Y 7 X -4 Y 6 X -6 Y 7 X -5 Y 7 X -4 Y 7 X -4 Y 6 X -6 Y 7 X -7 Y 7 X -4 Y 6 X -4 Y 7 X -6 Y 7 X -6 Y 7 X -2 Y 13 X -3 Y 7 X -6 Y 7 X -8 Y 6 X -8 Y 7 X -5 Y 7 X -4 Y 7 X -2 Y 6 X -3 Y 7 X -4 Y 7 X -5 Y 7 X -5 Y 6 X -6 Y 7 X -5 Y 7 X -2 Y 7 X -2 Y
 6 X -1 Y 7 X -3 Y 7 X -3 Y 7 X -4 Y 6 X -3 Y 7 X -4 Y 7 X -4 Y 6 X -2 Y 7 X -2 Y 7 X -3 Y 7 X -3 Y 6 X -2 Y 7 X -2 Y 7 X -1 Y 7 X -1 Y 13 X -3 Y 7 X -3 Y 7 X -3 Y 6 X s 1 1 1 c 881 601 1538 1072 bf 1538 1072 m 881 X s 2419 1072 m 601 Y s 2419 1673 m
 -881 X s 1538 1673 m -601 Y s black
 gsave  2948 1999 0 0 C 1757.81 1457.07 t 0 r /Helvetica findfont 59.2995 sf 0 0 m (Intrinsic Binaries) show NC gr  1 0 0 c 1571 1523 m 154 X s black
 gsave  2948 1999 0 0 C 1757.81 1156.34 t 0 r /Helvetica findfont 59.2995 sf 0 0 m (Detected binaries) show NC gr  0 0 1 c 1571 1222 m 154 X s 1 1 1 c black
 gsave  2948 1999 0 0 C 698.887 1884.88 t 0 r /Helvetica findfont 105.892 sf 0 0 m (Recovered log period distribution) show NC gr  gr showpage
 gr 
%%Trailer
%%Pages:  1
 gr  gr  gr 
%%EOF
