%!PS-Adobe-3.0 EPSF-3.0
%%Creator: MATLAB, The MathWorks, Inc. Version 8.1.0.604 (R2013a). Operating System: Darwin 13.0.0 Darwin Kernel Version 13.0.0: Thu Sep 19 22:22:27 PDT 2013; root:xnu-2422.1.72~6/RELEASE_X86_64 x86_64.
%%Title: /Users/admin/Projects/University/Simulating Binary Populations/Code/CDF_Plots/InclinationCDF.eps
%%CreationDate: 12/13/2013  19:54:17
%%DocumentNeededFonts: Helvetica
%%DocumentProcessColors: Cyan Magenta Yellow Black
%%LanguageLevel: 2
%%Pages: 1
%%BoundingBox:   -78    90   692   701
%%EndComments

%%BeginProlog
% MathWorks dictionary
/MathWorks 160 dict begin
% definition operators
/bdef {bind def} bind def
/ldef {load def} bind def
/xdef {exch def} bdef
/xstore {exch store} bdef
% operator abbreviations
/c  /clip ldef
/cc /concat ldef
/cp /closepath ldef
/gr /grestore ldef
/gs /gsave ldef
/mt /moveto ldef
/np /newpath ldef
/cm /currentmatrix ldef
/sm /setmatrix ldef
/rm /rmoveto ldef
/rl /rlineto ldef
/s {show newpath} bdef
/sc {setcmykcolor} bdef
/sr /setrgbcolor ldef
/sg /setgray ldef
/w /setlinewidth ldef
/j /setlinejoin ldef
/cap /setlinecap ldef
/rc {rectclip} bdef
/rf {rectfill} bdef
% page state control
/pgsv () def
/bpage {/pgsv save def} bdef
/epage {pgsv restore} bdef
/bplot /gsave ldef
/eplot {stroke grestore} bdef
% orientation switch
/portraitMode 0 def /landscapeMode 1 def /rotateMode 2 def
% coordinate system mappings
/dpi2point 0 def
% font control
/FontSize 0 def
/FMS {/FontSize xstore findfont [FontSize 0 0 FontSize neg 0 0]
  makefont setfont} bdef
/reencode {exch dup where {pop load} {pop StandardEncoding} ifelse
  exch dup 3 1 roll findfont dup length dict begin
  { 1 index /FID ne {def}{pop pop} ifelse } forall
  /Encoding exch def currentdict end definefont pop} bdef
/isroman {findfont /CharStrings get /Agrave known} bdef
/FMSR {3 1 roll 1 index dup isroman {reencode} {pop pop} ifelse
  exch FMS} bdef
/csm {1 dpi2point div -1 dpi2point div scale neg translate
 dup landscapeMode eq {pop -90 rotate}
  {rotateMode eq {90 rotate} if} ifelse} bdef
% line types: solid, dotted, dashed, dotdash
/SO { [] 0 setdash } bdef
/DO { [.5 dpi2point mul 4 dpi2point mul] 0 setdash } bdef
/DA { [6 dpi2point mul] 0 setdash } bdef
/DD { [.5 dpi2point mul 4 dpi2point mul 6 dpi2point mul 4
  dpi2point mul] 0 setdash } bdef
% macros for lines and objects
/L {lineto stroke} bdef
/MP {3 1 roll moveto 1 sub {rlineto} repeat} bdef
/AP {{rlineto} repeat} bdef
/PDlw -1 def
/W {/PDlw currentlinewidth def setlinewidth} def
/PP {closepath eofill} bdef
/DP {closepath stroke} bdef
/MR {4 -2 roll moveto dup  0 exch rlineto exch 0 rlineto
  neg 0 exch rlineto closepath} bdef
/FR {MR stroke} bdef
/PR {MR fill} bdef
/L1i {{currentfile picstr readhexstring pop} image} bdef
/tMatrix matrix def
/MakeOval {newpath tMatrix currentmatrix pop translate scale
0 0 1 0 360 arc tMatrix setmatrix} bdef
/FO {MakeOval stroke} bdef
/PO {MakeOval fill} bdef
/PD {currentlinewidth 2 div 0 360 arc fill
   PDlw -1 eq not {PDlw w /PDlw -1 def} if} def
/FA {newpath tMatrix currentmatrix pop translate scale
  0 0 1 5 -2 roll arc tMatrix setmatrix stroke} bdef
/PA {newpath tMatrix currentmatrix pop	translate 0 0 moveto scale
  0 0 1 5 -2 roll arc closepath tMatrix setmatrix fill} bdef
/FAn {newpath tMatrix currentmatrix pop translate scale
  0 0 1 5 -2 roll arcn tMatrix setmatrix stroke} bdef
/PAn {newpath tMatrix currentmatrix pop translate 0 0 moveto scale
  0 0 1 5 -2 roll arcn closepath tMatrix setmatrix fill} bdef
/vradius 0 def /hradius 0 def /lry 0 def
/lrx 0 def /uly 0 def /ulx 0 def /rad 0 def
/MRR {/vradius xdef /hradius xdef /lry xdef /lrx xdef /uly xdef
  /ulx xdef newpath tMatrix currentmatrix pop ulx hradius add uly
  vradius add translate hradius vradius scale 0 0 1 180 270 arc 
  tMatrix setmatrix lrx hradius sub uly vradius add translate
  hradius vradius scale 0 0 1 270 360 arc tMatrix setmatrix
  lrx hradius sub lry vradius sub translate hradius vradius scale
  0 0 1 0 90 arc tMatrix setmatrix ulx hradius add lry vradius sub
  translate hradius vradius scale 0 0 1 90 180 arc tMatrix setmatrix
  closepath} bdef
/FRR {MRR stroke } bdef
/PRR {MRR fill } bdef
/MlrRR {/lry xdef /lrx xdef /uly xdef /ulx xdef /rad lry uly sub 2 div def
  newpath tMatrix currentmatrix pop ulx rad add uly rad add translate
  rad rad scale 0 0 1 90 270 arc tMatrix setmatrix lrx rad sub lry rad
  sub translate rad rad scale 0 0 1 270 90 arc tMatrix setmatrix
  closepath} bdef
/FlrRR {MlrRR stroke } bdef
/PlrRR {MlrRR fill } bdef
/MtbRR {/lry xdef /lrx xdef /uly xdef /ulx xdef /rad lrx ulx sub 2 div def
  newpath tMatrix currentmatrix pop ulx rad add uly rad add translate
  rad rad scale 0 0 1 180 360 arc tMatrix setmatrix lrx rad sub lry rad
  sub translate rad rad scale 0 0 1 0 180 arc tMatrix setmatrix
  closepath} bdef
/FtbRR {MtbRR stroke } bdef
/PtbRR {MtbRR fill } bdef
/stri 6 array def /dtri 6 array def
/smat 6 array def /dmat 6 array def
/tmat1 6 array def /tmat2 6 array def /dif 3 array def
/asub {/ind2 exch def /ind1 exch def dup dup
  ind1 get exch ind2 get sub exch } bdef
/tri_to_matrix {
  2 0 asub 3 1 asub 4 0 asub 5 1 asub
  dup 0 get exch 1 get 7 -1 roll astore } bdef
/compute_transform {
  dmat dtri tri_to_matrix tmat1 invertmatrix 
  smat stri tri_to_matrix tmat2 concatmatrix } bdef
/ds {stri astore pop} bdef
/dt {dtri astore pop} bdef
/db {2 copy /cols xdef /rows xdef mul dup 3 mul string
  currentfile 
  3 index 0 eq {/ASCIIHexDecode filter}
  {/ASCII85Decode filter 3 index 2 eq {/RunLengthDecode filter} if }
  ifelse exch readstring pop
  dup 0 3 index getinterval /rbmap xdef
  dup 2 index dup getinterval /gbmap xdef
  1 index dup 2 mul exch getinterval /bbmap xdef pop pop}bdef
/it {gs np dtri aload pop moveto lineto lineto cp c
  cols rows 8 compute_transform 
  rbmap gbmap bbmap true 3 colorimage gr}bdef
/il {newpath moveto lineto stroke}bdef
currentdict end def
%%EndProlog

%%BeginSetup
MathWorks begin

0 cap

end
%%EndSetup

%%Page: 1 1
%%BeginPageSetup
%%PageBoundingBox:   -78    90   692   701
MathWorks begin
bpage
%%EndPageSetup

%%BeginObject: obj1
bplot

/dpi2point 12 def
portraitMode -0936 8412 csm

    0     0  9244  7325 rc
85 dict begin %Colortable dictionary
/c0 { 0.000000 0.000000 0.000000 sr} bdef
/c1 { 1.000000 1.000000 1.000000 sr} bdef
/c2 { 0.900000 0.000000 0.000000 sr} bdef
/c3 { 0.000000 0.820000 0.000000 sr} bdef
/c4 { 0.000000 0.000000 0.800000 sr} bdef
/c5 { 0.910000 0.820000 0.320000 sr} bdef
/c6 { 1.000000 0.260000 0.820000 sr} bdef
/c7 { 0.000000 0.820000 0.820000 sr} bdef
c0
1 j
1 sg
   0    0 9245 7326 rf
6 w
0 6352 8233 0 0 -6352 1009 6553 4 MP
PP
-8233 0 0 6352 8233 0 0 -6352 1009 6553 5 MP stroke
4 w
DO
SO
6 w
0 sg
1009 6553 mt 9242 6553 L
1009  201 mt 9242  201 L
1009 6553 mt 1009  201 L
9242 6553 mt 9242  201 L
1009 6553 mt 9242 6553 L
1009 6553 mt 1009  201 L
1009 6553 mt 1009 6470 L
1009  201 mt 1009  283 L
%%IncludeResource: font Helvetica
/Helvetica /ISOLatin1Encoding 360 FMSR

 909 6922 mt 
(0) s
3581 6553 mt 3581 6470 L
3581  201 mt 3581  283 L
3331 6922 mt 
(0.5) s
6154 6553 mt 6154 6470 L
6154  201 mt 6154  283 L
6054 6922 mt 
(1) s
8727 6553 mt 8727 6470 L
8727  201 mt 8727  283 L
8477 6922 mt 
(1.5) s
1009 6553 mt 1091 6553 L
9242 6553 mt 9159 6553 L
 774 6687 mt 
(0) s
1009 5282 mt 1091 5282 L
9242 5282 mt 9159 5282 L
 474 5416 mt 
(0.2) s
1009 4012 mt 1091 4012 L
9242 4012 mt 9159 4012 L
 474 4146 mt 
(0.4) s
1009 2741 mt 1091 2741 L
9242 2741 mt 9159 2741 L
 474 2875 mt 
(0.6) s
1009 1471 mt 1091 1471 L
9242 1471 mt 9159 1471 L
 474 1605 mt 
(0.8) s
1009  201 mt 1091  201 L
9242  201 mt 9159  201 L
 774  335 mt 
(1) s
1009 6553 mt 9242 6553 L
1009  201 mt 9242  201 L
1009 6553 mt 1009  201 L
9242 6553 mt 9242  201 L
3555 7242 mt 
(Inclination \(radians\)) s
 338 5221 mt  -90 rotate
(Cumulative Distribution) s
90 rotate
gs 1009 201 8234 6353 rc
/c8 { 1.000000 0.000000 0.000000 sr} bdef
c8
-1 0 2 -2 1 -1 1 -1 1 -1 1 -1 1 -1 0 -1 
2 -2 1 -1 1 -1 1 -1 1 -1 1 -1 0 -1 2 -2 
1 0 1 -1 0 -1 2 -2 1 -1 1 0 1 -1 0 -2 
1 -1 1 -1 1 -1 1 -1 1 -1 0 -2 2 -2 1 -1 
0 -1 2 -2 0 -1 2 -2 1 0 -1 0 2 -2 1 -1 
1 -1 0 -1 2 -2 0 -2 2 -2 0 -1 2 -2 0 -1 
2 -2 0 -1 2 -2 1 -1 0 -1 2 -2 0 -1 2 -2 
1 -1 1 -1 1 -1 1 0 -1 0 2 -2 1 -1 1 0 
-1 0 2 -2 0 -1 2 -2 1 -1 1 -1 0 -1 2 -2 
1 -1 1 0 -1 0 2 -2 1 -1 1 0 -1 0 2 -2 
1 -1 1 -1 0 -1 2 -2 1 -1 1 -1 0 -1 2 -2 
1 -1 0 -2 2 -2 1 0 1 -1 0 -2 2 -2 1 -1 
1 -1 1 -1 1 -1 1 -1 0 -2 2 -2 0 -1 2 -2 
1 -1 0 -1 2 -2 1 -1 1 -1 1 -1 1 -1 1 -1 
1 -1 0 -1 2 -2 0 -1 2 -2 1 -1 1 -1 1 -1 
0 -2 2 -2 1 -1 1 -1 1 0 -1 0 2 -2 1 -1 
1 -1 0 -1 2 -2 1 -1 0 -1 2 -2 1 -1 1 -1 
1 -1 1 -1 1 -1 0 -1 2 -2 1 -1 1 -1 1 -1 
1 -1 1 -1 0 -1 2 -2 1 -1 1 0 0 -1 2 -2 
1 -1 1 0 -1 0 2 -2 1 -1 0 -1 2 -2 1 -1 
1 -1 0 -1 2 -2 1 -1 1 -1 1 -1 1 0 1 -1 
0 -2 1 -1 1 -1 1 -1 1 -1 1 -1 1 -1 1 -1 
1 -1 1 -1 1 -1 1 -1 1 -1 0 -1 2 -2 1 -1 
1 -1 1 -1 0 -1 2 -2 1 -1 1 -1 1 -1 0 -1 
2 -2 0 -1 2 -2 1 -1 0 -1 2 -2 1 -1 1 -1 
1 -1 1 -1 1 -1 1 -1 0 -1 2 -2 1 -1 0 -1 
2 -2 0 -2 2 -2 1 -1 0 -1 2 -2 0 -1 2 -2 
1 -1 1 -1 1 -1 1 -1 1 -1 0 -2 2 -2 1 -1 
0 -1 2 -2 1 -1 1 -1 1 -1 1 -1 1 -1 1 -1 
1 -1 1 -1 1 -1 1 -1 1 -1 1 -1 1 -1 1 -1 
0 -1 2 -2 1 -1 0 -1 2 -2 1 -1 1 -1 1 -1 
1 -1 1 -1 1 -1 0 -1 2 -2 0 -1 2 -2 1 -1 
1 -1 1 -1 1 -1 1 0 1 -1 0 -1 2 -2 1 -1 
1 -1 1 -1 1 -1 1 -1 0 -1 2 -2 0 -1 2 -2 
1 0 -1 0 2 -2 1 -1 1 -1 1 -1 1 -1 0 -1 
2 -2 1 0 0 -2 2 -2 0 -1 2 -2 1 -1 0 -1 
2 -2 1 -1 1 -1 1 0 0 -1 2 -2 1 -1 1 -1 
1 -1 1 0 -1 0 8804 549 300 MP stroke
2 -2 1 -1 1 -1 0 -2 2 -2 0 -1 2 -2 1 -1 
0 -2 2 -2 1 -1 1 -1 1 -1 0 -1 2 -2 1 -1 
1 0 1 -1 1 -1 0 -1 2 -2 1 -1 1 -1 1 -1 
0 -1 2 -2 0 -1 2 -2 0 -1 2 -2 1 -1 0 -1 
2 -2 1 -1 1 -1 1 -1 1 0 -1 0 2 -2 0 -1 
2 -2 0 -1 2 -2 1 -1 1 -1 1 -1 1 -1 0 -2 
2 -2 0 -1 2 -2 1 -1 1 -1 1 -1 0 -1 2 -2 
1 -1 1 -1 0 -1 2 -2 1 0 -1 0 2 -2 1 -1 
1 -1 0 -1 2 -2 1 -1 1 -1 0 -1 2 -2 1 -1 
0 -1 2 -2 0 -1 2 -2 0 -1 2 -2 0 -2 2 -2 
1 -1 1 -1 1 -1 0 -1 2 -2 1 -1 1 -1 1 -1 
1 0 0 -1 2 -2 1 -1 1 -1 0 -3 2 -2 1 -1 
1 0 1 -1 1 -1 1 -1 1 -1 1 -1 1 -1 1 0 
1 -1 1 -1 0 -1 2 -2 1 -1 1 0 1 -1 0 -1 
2 -2 0 -1 2 -2 1 -1 1 0 -1 0 2 -2 1 0 
-1 0 2 -2 1 -1 0 -1 2 -2 1 -1 1 -1 0 -1 
2 -2 1 -1 1 -1 1 -1 1 -1 0 -1 2 -2 1 -1 
1 -1 1 -1 1 -1 0 -3 2 -2 1 0 0 -1 2 -2 
1 -1 0 -1 2 -2 1 -1 1 -1 0 -2 2 -2 0 -1 
2 -2 0 -1 2 -2 1 -1 0 -1 2 -2 1 -1 1 -1 
0 -1 2 -2 1 -1 1 -1 1 -1 1 -1 0 -1 2 -2 
1 -1 1 -1 1 -1 0 -1 2 -2 0 -1 2 -2 0 -1 
2 -2 1 -1 1 -1 1 -1 1 -1 0 -1 2 -2 1 -1 
1 -1 0 -1 2 -2 1 -1 1 -1 1 -1 1 -1 0 -1 
2 -2 0 -1 2 -2 1 -1 1 -1 0 -2 2 -2 1 -1 
1 -1 1 -1 1 -1 1 0 -1 0 2 -2 0 -1 2 -2 
1 0 -1 0 2 -2 1 -1 0 -1 2 -2 1 -1 1 -1 
1 -1 1 -1 0 -1 2 -2 0 -1 2 -2 0 -1 2 -2 
1 0 0 -1 2 -2 1 0 0 -1 2 -2 1 0 1 -1 
1 -1 1 -1 0 -2 2 -2 0 -1 2 -2 1 0 -1 0 
2 -2 1 -1 1 -1 1 -1 1 -1 1 -1 0 -1 2 -2 
1 -1 1 -1 0 -1 2 -2 1 -1 1 -1 1 -1 1 0 
-1 0 2 -2 1 0 -1 0 2 -2 0 -1 2 -2 1 0 
0 -2 2 -2 0 -1 2 -2 0 -1 2 -2 1 -1 1 0 
-1 0 2 -2 1 -1 1 -1 0 -2 2 -2 1 -1 1 0 
-1 0 2 -2 1 0 1 -1 0 -1 2 -2 1 -1 1 0 
-1 0 2 -2 1 -1 1 -1 1 0 0 -1 2 -2 1 -1 
0 -1 2 -2 1 -1 8516 904 300 MP stroke
1 -1 1 -1 1 -1 0 -1 1 -1 1 -1 1 -1 1 -1 
1 -1 1 -1 1 -1 0 -1 2 -2 1 -1 1 -1 0 -1 
2 -2 1 -1 0 -2 2 -2 1 -1 1 -1 1 -1 1 -1 
0 -1 2 -2 1 -1 1 0 -1 0 2 -2 0 -1 2 -2 
1 -1 1 -1 1 0 0 -2 2 -2 1 -1 1 -1 1 -1 
1 -1 1 -1 0 -1 2 -2 1 0 -1 0 2 -2 1 0 
1 -1 0 -1 2 -2 1 -1 1 -1 1 -1 0 -1 2 -2 
1 -1 1 -1 1 -1 0 -2 2 -2 1 -1 0 -1 2 -2 
1 -1 1 -1 0 -1 2 -2 1 -1 0 -1 2 -2 1 0 
-1 0 2 -2 1 -1 1 -1 1 -1 1 -1 0 -2 2 -2 
1 -1 1 -1 1 0 -1 0 2 -2 1 -1 1 -1 1 -1 
1 -1 1 -1 0 -1 2 -2 1 -1 0 -1 2 -2 1 -1 
0 -1 2 -2 0 -1 2 -2 0 -1 2 -2 1 -1 1 -1 
1 0 -1 0 2 -2 1 -1 1 -1 1 -1 1 -1 1 -1 
1 -1 1 -1 1 -1 1 -1 1 -1 1 -1 1 -1 0 -1 
2 -2 1 -1 1 -1 0 -1 2 -2 0 -1 2 -2 1 -1 
1 -1 0 -1 2 -2 0 -1 2 -2 1 -1 1 -1 1 -1 
1 -1 1 -1 1 -1 1 -1 1 -1 1 0 1 -1 1 -1 
1 -1 1 -1 0 -1 2 -2 1 -1 1 -1 1 -1 1 -1 
0 -1 2 -2 1 -1 1 -1 1 -1 0 -1 2 -2 1 -1 
1 -1 0 -2 2 -2 0 -1 2 -2 1 -1 1 -1 1 0 
-1 0 2 -2 1 -1 1 -1 1 -1 0 -1 2 -2 1 -1 
1 -1 0 -1 2 -2 1 -1 1 -1 1 -1 1 -1 0 -2 
1 -1 1 0 -1 0 2 -2 1 -1 1 -1 0 -2 2 -2 
1 -1 0 -2 2 -2 1 -1 1 -1 1 -1 0 -1 2 -2 
1 -1 1 -1 0 -1 2 -2 1 -1 1 -1 0 -1 2 -2 
0 -1 2 -2 0 -1 2 -2 1 -1 0 -1 2 -2 1 -1 
1 -1 1 -1 1 -1 1 -1 1 -1 1 -1 1 -1 0 -1 
2 -2 0 -1 2 -2 1 -1 1 0 1 -1 1 -1 0 -1 
2 -2 1 -1 0 -1 2 -2 1 -1 1 -1 1 -1 0 -1 
2 -2 1 -1 0 -1 1 -1 1 -1 1 -1 1 -1 1 -1 
0 -2 2 -2 1 -1 0 -1 2 -2 1 0 0 -2 2 -2 
1 -1 1 -1 0 -2 2 -2 1 -1 1 -1 1 -1 0 -1 
2 -2 1 0 -1 0 2 -2 1 -1 0 -1 2 -2 0 -1 
1 -1 1 -1 1 -1 1 -1 0 -2 2 -2 1 0 -1 0 
2 -2 1 -1 1 -1 1 -1 1 -1 1 -1 0 -2 2 -2 
1 -1 0 -1 2 -2 1 0 0 -2 2 -2 1 0 0 -1 
2 -2 1 -1 1 -1 8230 1256 300 MP stroke
1 -1 0 -1 2 -2 1 -1 1 -1 1 -1 1 -1 1 -1 
1 -1 1 -1 0 -1 2 -2 1 -1 1 -1 1 -1 1 -1 
0 -2 2 -2 1 -1 0 -1 2 -2 1 -1 1 -1 1 -1 
0 -1 2 -2 1 -1 1 -1 1 -1 0 -1 2 -2 1 -1 
1 -1 1 -1 1 -1 1 -1 0 -1 2 -2 0 -1 2 -2 
0 -1 2 -2 0 -1 2 -2 0 -1 2 -2 1 0 -1 0 
2 -2 1 0 -1 0 2 -2 0 -1 2 -2 1 -1 1 -1 
0 -1 2 -2 1 -1 1 -1 0 -1 2 -2 1 -1 0 -1 
2 -2 1 -1 0 -2 2 -2 1 -1 0 -1 2 -2 1 0 
-1 0 2 -2 0 -1 2 -2 1 0 0 -3 2 -2 1 -1 
0 -1 2 -2 1 -1 0 -1 2 -2 1 -1 1 -1 1 -1 
0 -1 2 -2 1 -1 0 -1 2 -2 1 -1 1 -1 0 -1 
2 -2 1 -1 1 -1 1 -1 1 0 1 -1 1 -1 1 -1 
1 -1 0 -1 2 -2 1 -1 1 -1 0 -2 2 -2 1 -1 
1 -1 0 -2 2 -2 1 -1 1 -1 1 -1 1 -1 0 -1 
2 -2 0 -1 2 -2 1 -1 1 -1 1 -1 1 -1 1 -1 
1 -1 0 -2 2 -2 1 -1 1 -1 1 -1 1 -1 0 -1 
2 -2 0 -1 2 -2 0 -1 2 -2 1 -1 0 -1 2 -2 
1 -1 0 -1 2 -2 1 -1 1 -1 1 -1 0 -2 2 -2 
0 -1 2 -2 0 -1 2 -2 1 -1 1 -1 0 -1 2 -2 
0 -1 2 -2 1 -1 1 -1 0 -1 2 -2 0 -1 1 -1 
0 -1 2 -2 1 -1 1 0 -1 0 2 -2 1 -1 1 -1 
1 -1 1 -1 0 -1 2 -2 1 -1 0 -1 2 -2 1 -1 
1 -1 1 -1 0 -1 2 -2 0 -1 2 -2 0 -1 2 -2 
1 -1 1 -1 1 -1 0 -1 2 -2 1 -1 1 -1 1 -1 
1 -1 1 -1 1 -1 1 -1 1 -1 1 -1 1 -1 0 -1 
2 -2 1 -1 1 -1 1 -1 0 -2 2 -2 0 -1 2 -2 
0 -1 2 -2 0 -1 2 -2 1 -1 1 -1 1 -1 1 -1 
1 -1 1 -1 1 0 -1 0 2 -2 1 -1 1 -1 1 0 
1 -1 1 -1 1 -1 1 -1 1 -1 1 -1 1 -1 0 -1 
2 -2 1 0 -1 0 2 -2 0 -1 2 -2 0 -1 2 -2 
1 -1 0 -1 2 -2 1 -1 1 -1 0 -1 2 -2 1 -1 
0 -1 2 -2 1 -1 1 -1 1 -1 1 -1 1 -1 0 -2 
2 -2 1 -1 0 -1 2 -2 0 -1 2 -2 0 -1 2 -2 
1 -1 1 0 0 -1 2 -2 1 -1 1 -1 1 -1 1 -1 
0 -1 2 -2 1 -1 0 -1 2 -2 1 0 1 -1 0 -1 
2 -2 0 -1 2 -2 1 0 1 -1 1 -1 1 -1 1 -1 
0 -2 2 -2 1 -1 7938 1623 300 MP stroke
1 -1 1 -1 1 -1 1 -1 1 -1 0 -1 2 -2 1 -1 
1 -1 1 -1 1 -1 1 -1 1 -1 0 -1 2 -2 1 -1 
1 -1 0 -1 2 -2 1 -1 1 -1 1 -1 1 0 1 -1 
1 -1 0 -1 2 -2 1 0 1 -1 1 -1 1 -1 0 -1 
2 -2 1 0 1 -1 0 -1 2 -2 1 -1 0 -1 2 -2 
0 -1 2 -2 1 -1 0 -1 2 -2 1 -1 1 -1 0 -1 
2 -2 1 -1 1 -1 1 -1 1 -1 1 -1 0 -1 2 -2 
1 -1 1 -1 1 -1 1 -1 0 -2 1 -1 0 -1 2 -2 
1 -1 1 -1 1 -1 1 -1 0 -1 2 -2 1 -1 0 -1 
2 -2 0 -1 2 -2 1 -1 1 -1 0 -1 2 -2 1 -1 
0 -1 2 -2 1 -1 1 -1 1 -1 0 -1 2 -2 1 0 
-1 0 2 -2 1 -1 1 -1 0 -1 2 -2 1 -1 1 -1 
0 -1 2 -2 0 -1 2 -2 1 -1 1 -1 1 -1 0 -1 
2 -2 1 -1 1 -1 0 -1 2 -2 0 -1 2 -2 1 -1 
1 -1 1 -1 1 -1 1 -1 1 0 1 -1 1 -1 1 -1 
1 -1 1 -1 1 -1 1 -1 0 -1 2 -2 1 -1 1 -1 
1 -1 1 -1 0 -1 2 -2 1 -1 1 -1 0 -1 2 -2 
0 -1 2 -2 0 -1 2 -2 1 -1 1 -1 0 -1 2 -2 
1 0 0 -2 2 -2 0 -1 1 -1 1 0 1 -1 1 -1 
0 -1 2 -2 1 -1 1 -1 0 -1 2 -2 0 -2 2 -2 
1 -1 1 -1 1 -1 0 -1 2 -2 1 0 0 -1 2 -2 
0 -1 2 -2 0 -1 2 -2 1 0 0 -1 2 -2 1 -1 
1 -1 0 -1 2 -2 1 0 1 -1 0 -1 2 -2 0 -1 
2 -2 0 -2 2 -2 0 -1 2 -2 1 0 0 -1 2 -2 
1 0 -1 0 2 -2 1 0 0 -1 2 -2 1 -1 1 -1 
0 -1 2 -2 1 -1 1 -1 1 -1 0 -1 2 -2 1 0 
-1 0 2 -2 1 -1 0 -1 2 -2 0 -1 2 -2 1 -1 
1 -1 1 -1 0 -1 2 -2 1 -1 1 -1 1 -1 0 -1 
2 -2 1 -1 1 -1 1 -1 1 -1 0 -1 2 -2 1 -1 
0 -2 2 -2 0 -1 2 -2 1 0 -1 0 2 -2 1 -1 
1 -1 1 -1 1 -1 1 -1 1 -1 0 -2 2 -2 1 -1 
1 -1 0 -1 2 -2 1 -1 1 0 -1 0 2 -2 1 -1 
1 0 0 -1 2 -2 1 0 -1 0 2 -2 1 -1 1 -1 
1 -1 1 -1 0 -1 2 -2 1 -1 0 -1 2 -2 0 -1 
2 -2 0 -1 2 -2 0 -1 2 -2 1 -1 1 -1 1 -1 
0 -1 2 -2 1 -1 0 -1 2 -2 0 -1 2 -2 1 0 
1 -1 0 -1 2 -2 0 -1 2 -2 1 -1 1 -1 1 -1 
1 -1 0 -2 2 -2 7647 1979 300 MP stroke
0 -1 2 -2 1 0 1 -1 1 -1 1 -1 0 -1 2 -2 
1 -1 1 -1 1 -1 1 -1 1 -1 1 -1 0 -1 2 -2 
1 -1 1 -1 1 -1 1 -1 0 -1 2 -2 1 -1 1 -1 
1 -1 1 -1 1 -1 1 -1 1 -1 0 -1 2 -2 1 0 
1 -1 0 -1 2 -2 0 -1 2 -2 1 -1 1 -1 0 -2 
2 -2 1 -1 1 -1 0 -1 2 -2 1 -1 1 -1 1 -1 
1 0 -1 0 2 -2 1 0 -1 0 2 -2 1 -1 1 -1 
1 -1 1 -1 1 0 -1 0 2 -2 1 -1 1 -1 0 -1 
2 -2 1 -1 1 -1 1 -1 1 -1 1 -1 1 -1 0 -1 
2 -2 1 0 1 -1 0 -1 2 -2 1 -1 1 -1 0 -1 
2 -2 1 -1 1 -1 1 -1 1 -1 1 -1 1 -1 1 -1 
1 -1 1 -1 1 -1 1 -1 0 -2 2 -2 1 -1 1 0 
1 -1 1 -1 1 -1 0 -1 2 -2 1 -1 1 -1 0 -1 
2 -2 1 -1 0 -1 2 -2 1 -1 1 -1 1 -1 1 -1 
1 -1 0 -1 2 -2 0 -1 2 -2 1 -1 1 -1 1 -1 
0 -1 2 -2 1 -1 1 -1 0 -2 2 -2 1 0 -1 0 
2 -2 1 -1 1 -1 1 -1 1 -1 1 -1 1 -1 0 -1 
2 -2 1 -1 1 -1 1 -1 1 -1 1 -1 1 -1 1 -1 
0 -1 2 -2 1 -1 1 -1 1 -1 1 -1 1 -1 1 -1 
1 -1 0 -1 2 -2 1 -1 1 -1 1 -1 1 0 1 -1 
1 -1 1 -1 1 -1 1 -1 1 -1 1 -1 0 -1 2 -2 
1 -1 0 -1 2 -2 1 -1 1 0 0 -1 2 -2 1 -1 
1 0 1 -1 1 -1 1 -1 1 -1 1 0 -1 0 2 -2 
0 -1 2 -2 1 -1 1 0 0 -1 2 -2 1 -1 1 -1 
0 -1 2 -2 1 -1 1 -1 1 -1 0 -1 2 -2 1 -1 
1 -1 1 -1 0 -1 2 -2 1 -1 0 -1 2 -2 1 -1 
1 -1 0 -1 2 -2 1 -1 0 -1 2 -2 1 -1 1 -1 
1 -1 1 -1 1 -1 1 -1 0 -1 2 -2 1 -1 1 -1 
1 -1 1 -1 0 -1 2 -2 1 -1 0 -1 2 -2 1 0 
0 -1 2 -2 1 0 1 -1 1 -1 1 -1 1 -1 1 -1 
1 -1 1 0 0 -1 2 -2 1 -1 1 -1 1 -1 1 -1 
1 0 1 -1 1 -1 1 -1 0 -1 2 -2 1 -1 0 -1 
2 -2 0 -1 1 -1 1 -1 1 -1 0 -1 2 -2 1 0 
1 -1 1 0 -1 0 2 -2 1 0 -1 0 2 -2 1 -1 
1 -1 1 -1 0 -1 2 -2 0 -1 2 -2 0 -1 2 -2 
1 0 1 -1 1 -1 1 -1 1 -1 1 -1 1 0 -1 0 
2 -2 1 0 0 -2 2 -2 1 -1 1 -1 1 -1 1 -1 
1 0 -1 0 2 -2 7358 2305 300 MP stroke
1 0 0 -2 2 -2 1 0 -1 0 2 -2 1 -1 1 -1 
0 -1 2 -2 1 -1 1 -1 1 -1 1 -1 1 -1 1 -1 
1 0 -1 0 2 -2 1 -1 0 -1 2 -2 1 -1 1 -1 
0 -1 2 -2 0 -1 2 -2 1 -1 0 -1 2 -2 1 -1 
1 0 0 -1 2 -2 1 -1 1 -1 1 -1 0 -1 2 -2 
1 -1 0 -1 2 -2 1 -1 1 -1 1 -1 1 -1 1 -1 
1 -1 1 -1 0 -1 2 -2 1 -1 1 -1 1 -1 0 -1 
2 -2 1 -1 1 -1 1 -1 1 -1 1 -1 1 -1 1 -1 
1 -1 1 -1 1 0 1 -1 0 -1 2 -2 1 0 -1 0 
2 -2 1 0 -1 0 2 -2 1 -1 1 -1 1 -1 1 -1 
1 0 -1 0 2 -2 1 -1 1 -1 1 -1 1 -1 1 -1 
0 -1 2 -2 1 0 1 -1 1 -1 0 -1 2 -2 1 -1 
1 -1 1 -1 1 -1 1 -1 1 0 -1 0 2 -2 1 -1 
1 -1 1 -1 1 -1 0 -1 2 -2 1 -1 1 0 -1 0 
2 -2 1 -1 1 -1 1 0 -1 0 2 -2 1 -1 1 -1 
0 -1 2 -2 1 -1 1 -1 1 -1 1 -1 1 0 0 -1 
2 -2 1 -1 1 -1 1 -1 1 0 1 -1 1 -1 1 -1 
0 -1 2 -2 1 0 -1 0 2 -2 1 -1 1 -1 0 -2 
2 -2 1 0 -1 0 2 -2 1 -1 1 -1 1 -1 1 -1 
1 -1 1 -1 0 -1 2 -2 1 -1 1 -1 1 -1 1 -1 
1 -1 1 -1 1 0 1 -1 0 -1 2 -2 1 -1 1 -1 
0 -1 2 -2 1 -1 1 -1 1 0 -1 0 2 -2 1 -1 
0 -1 2 -2 1 -1 1 0 1 -1 1 -1 0 -1 2 -2 
1 -1 1 -1 1 -1 1 -1 1 -1 0 -2 2 -2 1 -1 
0 -2 2 -2 1 0 1 -1 1 -1 1 -1 1 -1 0 -1 
2 -2 1 0 -1 0 2 -2 1 -1 0 -1 2 -2 1 -1 
0 -1 2 -2 1 0 1 -1 1 0 -1 0 2 -2 1 -1 
1 -1 1 -1 1 -1 1 -1 0 -1 2 -2 1 0 -1 0 
2 -2 1 -1 1 -1 1 -1 1 -1 1 -1 1 -1 1 -1 
1 -1 1 -1 1 -1 0 -1 2 -2 1 0 -1 0 2 -2 
1 0 0 -1 2 -2 1 -1 0 -1 2 -2 1 -1 1 -1 
1 -1 1 -1 1 0 1 -1 1 -1 1 -1 1 -1 0 -1 
2 -2 1 -1 1 0 1 -1 1 -1 1 -1 1 -1 1 -1 
1 -1 1 -1 1 -1 0 -1 2 -2 1 0 0 -1 2 -2 
1 -1 0 -1 2 -2 1 0 1 -1 1 -1 1 -1 1 0 
-1 0 2 -2 1 -1 1 -1 1 -1 1 -1 1 -1 1 -1 
0 -1 2 -2 0 -1 2 -2 1 0 -1 0 2 -2 1 -1 
1 -1 1 -1 0 -1 7077 2615 300 MP stroke
2 -2 1 0 0 -2 2 -2 1 -1 1 -1 1 -1 1 -1 
1 -1 1 -1 1 -1 0 -1 2 -2 1 -1 1 -1 1 -1 
1 -1 1 -1 1 -1 1 -1 1 -1 1 -1 1 0 1 -1 
0 -1 2 -2 1 -1 1 -1 1 -1 0 -1 2 -2 1 -1 
1 -1 0 -1 2 -2 0 -1 2 -2 1 0 1 -1 1 -1 
0 -1 2 -2 1 -1 1 -1 1 -1 0 -2 2 -2 1 -1 
1 -1 1 -1 1 -1 1 -1 1 -1 1 -1 1 -1 1 -1 
1 -1 1 -1 0 -1 2 -2 1 -1 1 -1 1 -1 1 0 
1 -1 1 -1 1 -1 1 -1 1 -1 1 -1 1 -1 1 -1 
1 -1 1 -1 1 -1 1 -1 1 -1 1 -1 1 -1 1 -1 
0 -1 2 -2 1 -1 1 -1 1 -1 1 -1 1 -1 1 -1 
0 -1 2 -2 1 -1 1 -1 0 -1 2 -2 0 -1 2 -2 
1 -1 1 -1 1 -1 0 -1 2 -2 1 -1 1 -1 1 -1 
1 -1 1 -1 1 -1 1 -1 1 0 -1 0 2 -2 0 -1 
1 -1 0 -1 1 -1 1 -1 1 -1 1 -1 1 0 1 -1 
1 -1 0 -2 2 -2 1 -1 1 -1 1 -1 1 0 1 -1 
1 -1 1 -1 0 -1 2 -2 0 -1 2 -2 1 -1 0 -1 
2 -2 1 -1 1 -1 1 -1 1 -1 1 -1 1 -1 1 -1 
0 -1 2 -2 1 -1 1 -1 1 -1 1 -1 0 -1 2 -2 
1 0 1 -1 1 -1 0 -1 2 -2 1 0 1 -1 0 -1 
2 -2 1 -1 1 -1 1 -1 0 -1 2 -2 1 -1 1 -1 
0 -1 2 -2 1 0 -1 0 2 -2 1 -1 1 -1 1 0 
0 -1 2 -2 1 -1 1 -1 1 0 -1 0 2 -2 1 -1 
0 -1 2 -2 1 -1 1 -1 1 -1 0 -1 2 -2 1 -1 
1 0 -1 0 2 -2 1 -1 0 -1 2 -2 0 -1 2 -2 
0 -1 2 -2 1 -1 1 -1 1 -1 1 -1 1 -1 1 0 
1 -1 1 -1 1 -1 1 -1 1 -1 0 -2 2 -2 1 -1 
1 -1 1 -1 1 -1 1 -1 1 -1 1 -1 1 -1 1 0 
0 -1 2 -2 1 -1 1 0 1 -1 1 -1 1 -1 1 -1 
1 -1 1 -1 1 -1 1 -1 1 -1 1 -1 1 -1 1 -1 
1 -1 0 -1 2 -2 1 -1 0 -1 2 -2 1 -1 1 -1 
1 0 1 -1 1 -1 0 -1 2 -2 1 -1 1 -1 1 -1 
1 -1 0 -1 2 -2 1 -1 1 -1 1 -1 1 -1 1 -1 
0 -1 2 -2 0 -1 2 -2 1 -1 1 -1 1 -1 1 -1 
1 -1 0 -1 2 -2 0 -2 2 -2 1 0 0 -1 2 -2 
1 -1 1 -1 1 -1 1 -1 1 -1 1 -1 0 -1 2 -2 
1 -1 1 -1 1 0 -1 0 2 -2 1 -1 1 -1 1 -1 
1 -1 1 -1 1 -1 6784 2943 300 MP stroke
0 -1 2 -2 1 0 1 -1 1 -1 1 -1 1 -1 1 -1 
1 -1 0 -1 2 -2 1 0 1 -1 1 -1 1 -1 1 -1 
1 -1 1 -1 1 -1 0 -1 2 -2 1 -1 1 0 -1 0 
2 -2 1 -1 1 -1 1 -1 1 0 -1 0 2 -2 1 -1 
0 -1 2 -2 1 -1 0 -1 2 -2 0 -1 2 -2 1 -1 
1 -1 1 -1 0 -1 2 -2 1 -1 1 -1 0 -1 2 -2 
1 -1 1 -1 1 -1 0 -1 2 -2 1 -1 1 -1 1 -1 
1 -1 1 -1 1 0 1 -1 1 -1 1 -1 1 -1 0 -1 
2 -2 1 -1 1 -1 0 -1 2 -2 1 -1 1 -1 1 -1 
0 -1 2 -2 1 -1 1 -1 1 -1 1 -1 1 -1 1 -1 
0 -1 2 -2 1 0 1 -1 1 -1 1 -1 1 -1 0 -1 
2 -2 1 0 -1 0 2 -2 1 0 -1 0 2 -2 1 -1 
1 -1 1 -1 1 -1 1 -1 1 -1 1 -1 0 -1 2 -2 
1 -1 1 -1 1 -1 1 -1 0 -1 2 -2 1 0 -1 0 
2 -2 1 0 -1 0 2 -2 1 -1 1 -1 1 -1 1 0 
1 -1 1 0 0 -1 2 -2 1 0 -1 0 2 -2 1 0 
1 -1 1 -1 1 0 1 -1 1 -1 1 -1 1 -1 1 -1 
1 -1 1 -1 1 -1 1 -1 0 -2 2 -2 1 0 -1 0 
2 -2 1 -1 1 -1 1 -1 0 -2 2 -2 1 0 0 -1 
2 -2 1 -1 0 -1 2 -2 1 -1 1 -1 1 -1 1 -1 
1 0 -1 0 2 -2 1 0 1 -1 1 0 -1 0 2 -2 
0 -1 2 -2 1 -1 0 -1 2 -2 1 -1 0 -1 2 -2 
1 0 1 -1 1 -1 1 -1 1 -1 0 -1 2 -2 1 -1 
1 -1 1 -1 1 -1 1 -1 1 -1 1 0 1 -1 0 -1 
2 -2 1 0 -1 0 2 -2 0 -2 2 -2 1 -1 1 -1 
0 -1 2 -2 1 -1 1 -1 1 -1 0 -2 1 -1 1 0 
1 0 1 -1 1 -1 1 -1 1 -1 1 0 -1 0 2 -2 
1 -1 1 0 1 -1 1 -1 0 -1 2 -2 1 0 -1 0 
2 -2 1 -1 1 -1 1 -1 1 -1 1 -1 0 -1 2 -2 
1 -1 0 -1 2 -2 1 -1 1 -1 1 -1 0 -1 2 -2 
1 -1 1 -1 1 -1 1 -1 1 -1 1 -1 1 -1 0 -1 
2 -2 1 0 1 -1 1 -1 0 -1 2 -2 1 0 1 -1 
0 -1 2 -2 1 -1 1 -1 1 -1 1 -1 1 -1 1 -1 
1 -1 1 -1 1 -1 1 0 -1 0 2 -2 1 -1 1 -1 
1 -1 0 -1 2 -2 1 -1 1 -1 0 -1 2 -2 1 -1 
1 -1 0 -1 2 -2 1 -1 1 -1 1 -1 1 -1 0 -1 
2 -2 1 -1 1 -1 1 -1 1 -1 1 -1 1 -1 1 -1 
1 -1 1 -1 1 -1 6500 3254 300 MP stroke
1 -1 1 -1 1 -1 1 -1 1 -1 1 -1 1 -1 1 -1 
1 -1 1 -1 1 -1 1 -1 1 0 -1 0 2 -2 1 -1 
1 -1 1 -1 1 -1 0 -1 2 -2 1 -1 0 -1 2 -2 
1 -1 1 -1 1 -1 1 -1 1 -1 1 -1 1 -1 0 -1 
2 -2 1 -1 1 -1 1 -1 1 -1 1 -1 0 -1 2 -2 
1 -1 1 -1 0 -1 2 -2 1 0 0 -1 2 -2 1 -1 
1 -1 1 -1 1 -1 1 -1 0 -1 2 -2 1 -1 1 -1 
1 0 1 -1 0 -1 2 -2 0 -1 1 -1 1 -1 1 -1 
0 -1 2 -2 1 -1 1 -1 1 -1 1 -1 1 -1 1 -1 
1 -1 1 -1 1 -1 1 -1 1 -1 1 -1 1 -1 1 -1 
1 -1 1 -1 1 -1 1 -1 1 -1 1 -1 0 -1 2 -2 
1 -1 1 -1 1 -1 1 -1 1 -1 1 -1 0 -1 2 -2 
1 0 1 -1 0 -2 1 -1 1 0 1 -1 1 -1 1 -1 
0 -1 2 -2 1 -1 0 -2 2 -2 1 -1 1 -1 1 -1 
1 -1 1 -1 0 -1 2 -2 1 -1 1 -1 1 -1 1 -1 
1 -1 1 -1 1 -1 1 -1 1 -1 1 -1 0 -1 2 -2 
1 -1 1 0 1 -1 1 -1 1 0 -1 0 2 -2 0 -1 
2 -2 1 0 0 -1 2 -2 1 -1 1 -1 1 -1 1 -1 
1 0 -1 0 2 -2 1 -1 1 -1 1 -1 1 -1 1 -1 
0 -1 2 -2 1 -1 1 0 1 -1 0 -1 2 -2 1 -1 
0 -1 2 -2 1 0 0 -1 2 -2 1 -1 1 0 1 -1 
1 0 1 -1 1 -1 0 -1 2 -2 1 0 1 -1 1 0 
-1 0 2 -2 1 -1 1 0 1 -1 1 -1 1 -1 1 -1 
1 -1 1 -1 1 0 -1 0 2 -2 1 -1 1 -1 1 -1 
1 -1 1 -1 0 -1 2 -2 1 -1 1 0 -1 0 2 -2 
1 -1 0 -1 2 -2 1 0 1 -1 1 -1 1 -1 1 0 
1 -1 1 -1 1 -1 1 0 1 -1 1 -1 1 -1 1 -1 
1 -1 1 0 -1 0 2 -2 1 -1 1 -1 1 -1 1 -1 
1 -1 1 -1 1 0 -1 0 2 -2 1 -1 1 -1 1 0 
1 -1 1 0 -1 0 2 -2 1 0 -1 0 2 -2 1 0 
1 -1 1 -1 1 -1 1 -1 0 -1 2 -2 1 0 1 -1 
1 -1 1 0 1 -1 1 -1 1 -1 0 -1 2 -2 1 -1 
0 -1 2 -2 1 0 1 -1 1 -1 1 -1 1 -1 1 0 
-1 0 2 -2 1 0 -1 0 2 -2 1 0 1 -1 1 -1 
0 -1 2 -2 1 0 0 -2 2 -2 1 0 0 -1 2 -2 
1 0 1 -1 1 -1 0 -1 2 -2 1 0 1 -1 1 -1 
0 -2 2 -2 1 0 -1 0 2 -2 0 -1 2 -2 1 0 
1 -1 1 -1 1 -1 6216 3551 300 MP stroke
1 -1 1 -1 0 -1 2 -2 1 -1 1 -1 1 -1 1 -1 
1 0 1 -1 1 -1 1 -1 0 -1 2 -2 1 -1 1 -1 
1 -1 0 -1 2 -2 1 -1 1 -1 1 -1 1 0 0 -1 
2 -2 0 -1 2 -2 1 0 1 -1 1 -1 1 -1 1 -1 
1 -1 1 -1 1 -1 1 -1 1 -1 0 -1 2 -2 1 -1 
1 0 1 -1 1 -1 1 -1 1 -1 1 -1 0 -1 2 -2 
1 -1 1 -1 1 -1 1 -1 1 -1 1 -1 1 -1 1 -1 
1 -1 1 -1 1 -1 1 -1 1 -1 1 -1 1 -1 1 -1 
1 -1 1 -1 0 -1 2 -2 1 -1 1 -1 1 0 0 -1 
2 -2 1 -1 1 -1 1 -1 0 -1 2 -2 1 -1 0 -1 
2 -2 1 -1 1 -1 1 0 1 -1 1 -1 1 -1 1 -1 
1 0 0 -1 2 -2 1 -1 1 -1 0 -1 2 -2 1 0 
0 -1 2 -2 0 -1 2 -2 1 -1 1 -1 0 -1 2 -2 
1 -1 1 -1 1 -1 1 -1 1 -1 1 -1 1 -1 1 0 
0 -1 2 -2 1 0 1 -1 1 -1 1 -1 1 -1 1 -1 
1 -1 1 -1 1 -1 1 0 1 -1 0 -1 2 -2 1 0 
1 -1 1 -1 1 -1 1 0 -1 0 2 -2 1 -1 1 0 
-1 0 2 -2 0 -1 2 -2 1 0 1 -1 1 -1 1 -1 
1 -1 1 -1 1 -1 1 -1 1 -1 0 -1 2 -2 1 0 
1 -1 1 -1 1 -1 1 -1 1 -1 1 -1 1 -1 1 -1 
1 0 1 -1 1 -1 0 -1 2 -2 1 0 1 -1 1 -1 
1 -1 0 -1 2 -2 1 0 1 -1 1 -1 1 -1 1 -1 
1 -1 1 -1 1 -1 1 -1 1 -1 1 0 1 -1 1 -1 
1 -1 1 -1 1 0 1 -1 1 -1 1 -1 1 -1 1 0 
1 -1 1 -1 1 -1 1 -1 1 -1 0 -1 2 -2 1 -1 
1 0 -1 0 2 -2 1 0 0 -1 2 -2 1 0 1 -1 
1 0 1 -1 1 -1 0 -1 2 -2 1 -1 0 -1 2 -2 
1 0 1 -1 1 -1 1 -1 1 -1 1 -1 1 0 -1 0 
2 -2 1 0 0 -1 2 -2 1 -1 1 -1 1 -1 1 -1 
1 -1 1 -1 1 -1 1 -1 1 -1 1 -1 1 0 -1 0 
2 -2 1 -1 1 -1 1 -1 1 -1 1 -1 0 -1 2 -2 
1 -1 1 0 -1 0 2 -2 1 -1 1 -1 1 -1 0 -1 
2 -2 1 -1 0 -1 2 -2 1 0 1 -1 1 -1 1 -1 
1 -1 1 -1 1 0 1 -1 1 -1 1 -1 1 0 -1 0 
2 -2 1 -1 1 0 1 -1 1 -1 1 -1 1 -1 1 -1 
1 -1 1 -1 1 -1 1 -1 1 -1 1 -1 0 -1 2 -2 
1 0 -1 0 2 -2 1 -1 1 -1 1 -1 1 -1 0 -1 
2 -2 1 -1 1 -1 5925 3846 300 MP stroke
1 -1 1 -1 1 -1 1 -1 1 -1 1 -1 1 -1 1 -1 
1 0 -1 0 2 -2 1 -1 1 -1 1 -1 1 -1 1 -1 
1 -1 1 -1 1 -1 1 -1 1 -1 1 -1 1 -1 1 -1 
1 -1 1 -1 1 -1 1 -1 1 -1 1 -1 1 -1 1 -1 
1 -1 1 -1 1 0 1 -1 1 -1 1 0 1 -1 1 -1 
1 -1 1 -1 1 -1 1 -1 1 -1 1 -1 1 -1 1 -1 
1 -1 1 0 1 -1 0 -1 2 -2 1 -1 1 -1 1 0 
1 -1 1 -1 1 -1 1 -1 1 -1 1 -1 1 0 0 -1 
2 -2 1 -1 1 -1 1 -1 0 -1 3 -1 0 -1 1 -1 
1 0 1 -1 1 -1 1 -1 0 -1 2 -2 1 -1 1 -1 
1 -1 1 -1 1 0 1 -1 1 -1 1 -1 0 -1 2 -2 
1 -1 1 -1 1 -1 1 -1 1 -1 1 -1 1 -1 1 0 
1 -1 1 -1 1 0 1 -1 1 -1 1 -1 1 -1 0 -1 
2 -2 1 -1 1 -1 1 -1 1 -1 0 -1 2 -2 1 -1 
1 -1 1 -1 1 -1 1 -1 1 -1 1 -1 0 -1 2 -2 
1 0 1 -1 1 -1 1 -1 1 -1 1 0 1 -1 0 -1 
2 -2 1 -1 1 -1 1 -1 0 -1 2 -2 1 -1 1 -1 
1 -1 1 0 1 -1 1 0 1 -1 0 -1 2 -2 1 0 
-1 0 2 -2 1 0 -1 0 2 -2 1 0 1 -1 1 -1 
1 -1 1 -1 1 -1 1 -1 1 0 1 -1 1 -1 1 -1 
0 -1 2 -2 1 -1 1 -1 1 -1 1 -1 1 -1 1 -1 
1 0 1 -1 1 -1 1 0 1 -1 1 0 -1 0 2 -2 
1 -1 1 -1 1 -1 1 -1 1 0 1 -1 1 -1 1 0 
1 -1 1 -1 1 -1 1 -1 1 -1 1 -1 1 -1 1 -1 
1 0 1 -1 1 -1 0 -1 2 -2 1 -1 1 -1 1 -1 
1 -1 1 -1 1 -1 1 -1 1 -1 1 -1 1 -1 1 -1 
1 -1 1 -1 1 -1 1 0 1 -1 1 -1 1 -1 1 -1 
1 -1 1 -1 1 0 1 -1 1 -1 1 -1 1 -1 1 -1 
1 -1 1 -1 1 -1 1 -1 1 -1 1 -1 1 -1 1 -1 
1 -1 1 -1 1 -1 1 -1 1 0 1 -1 1 -1 0 -1 
2 -2 1 -1 0 -1 2 -2 1 -1 1 -1 1 -1 1 -1 
1 -1 1 -1 1 -1 1 -1 1 -1 1 -1 1 -1 1 -1 
1 0 1 -1 1 -1 1 -1 1 -1 1 -1 1 -1 1 -1 
1 0 1 -1 0 -1 2 -2 1 -1 1 -1 1 0 1 -1 
1 -1 0 -1 2 -2 1 -1 1 -1 1 -1 1 0 -1 0 
2 -2 1 0 1 -1 1 -1 1 -1 1 -1 0 -2 2 -2 
1 -1 1 -1 1 -1 1 -1 1 -1 1 -1 1 -1 1 -1 
1 -1 1 -1 1 -1 5631 4131 300 MP stroke
1 -1 1 -1 1 0 1 -1 1 -1 1 -1 0 -1 2 -2 
1 -1 1 0 1 -1 1 -1 1 -1 1 -1 1 0 1 -1 
1 -1 1 -1 1 0 -1 0 2 -2 1 0 0 -1 2 -2 
1 0 1 -1 1 -1 1 -1 1 -1 1 -1 1 -1 0 -1 
2 -2 1 -1 1 -1 1 0 0 -1 2 -2 1 -1 1 -1 
1 -1 1 -1 1 0 -1 0 2 -2 1 -1 1 -1 1 -1 
0 -1 2 -2 1 0 -1 0 2 -2 1 -1 1 -1 1 -1 
1 -1 1 0 1 -1 1 0 0 -1 2 -2 1 -1 0 -1 
2 -2 1 0 1 -1 0 -1 2 -2 1 -1 1 -1 1 -1 
1 -1 1 -1 1 -1 1 -1 1 -1 1 -1 1 -1 1 0 
1 -1 0 -1 2 -2 1 -1 1 -1 1 -1 1 0 1 -1 
1 -1 1 -1 1 -1 1 -1 1 -1 1 -1 0 -1 2 -2 
1 -1 1 -1 1 -1 1 -1 1 -1 0 -1 2 -2 1 0 
0 -1 2 -2 1 -1 1 0 1 -1 1 -1 1 -1 1 0 
-1 0 2 -2 1 0 1 -1 1 -1 0 -1 2 -2 1 0 
1 -1 1 -1 0 -1 2 -2 1 -1 1 -1 1 -1 1 -1 
1 -1 1 -1 1 -1 1 -1 1 -1 1 -1 0 -1 2 -2 
1 -1 1 -1 1 0 0 -1 2 -2 1 -1 1 0 1 -1 
0 -1 2 -2 0 -1 2 -2 1 0 1 -1 1 -1 1 -1 
1 -1 1 -1 1 -1 0 -1 2 -2 1 0 1 -1 1 -1 
1 -1 1 -1 1 -1 1 -1 1 -1 1 -1 1 -1 1 -1 
1 -1 1 -1 1 -1 1 -1 1 0 0 -1 2 -2 1 0 
1 -1 1 -1 1 -1 1 -1 1 -1 1 -1 1 -1 1 0 
1 0 -1 0 2 -2 1 0 1 0 0 -2 1 -1 1 -1 
1 0 1 -1 1 -1 1 -1 0 -1 2 -2 1 -1 1 -1 
1 -1 1 -1 1 -1 1 -1 1 0 1 -1 1 -1 0 -1 
2 -2 1 -1 1 -1 1 0 1 -1 1 -1 1 -1 1 -1 
1 -1 1 -1 1 -1 1 -1 1 0 -1 0 2 -2 1 -1 
1 0 1 -1 1 -1 1 0 1 -1 1 -1 1 -1 1 0 
1 -1 1 -1 1 -1 1 -1 1 -1 1 -1 1 0 1 -1 
1 -1 1 -1 1 0 1 -1 1 -1 1 -1 1 0 1 -1 
1 -1 1 -1 1 -1 0 -2 2 -2 1 -1 1 -1 1 -1 
1 -1 1 -1 1 -1 1 0 1 -1 1 -1 0 -1 2 -2 
1 -1 1 -1 1 -1 1 -1 0 -1 2 -2 1 0 1 -1 
1 0 1 -1 1 -1 1 -1 1 -1 1 -1 0 -1 2 -2 
1 0 -1 0 2 -2 1 -1 1 -1 1 0 1 -1 1 -1 
1 -1 1 -1 0 -1 2 -2 1 0 1 -1 0 -1 2 -2 
0 -1 2 -2 1 -1 5340 4416 300 MP stroke
1 0 1 -1 0 -1 2 -2 1 -1 1 -1 0 -1 2 -2 
1 -1 1 -1 1 0 0 -1 2 -2 1 0 1 -1 1 -1 
1 -1 1 0 -1 0 2 -2 1 -1 1 -1 0 -1 2 -2 
1 0 1 -1 1 -1 1 -1 1 -1 1 -1 1 -1 1 -1 
1 -1 1 -1 1 0 1 -1 1 -1 1 -1 1 -1 1 0 
1 -1 1 -1 1 -1 1 -1 0 -1 2 -2 1 0 1 -1 
1 -1 1 -1 1 -1 1 -1 1 -1 1 0 1 -1 1 -1 
1 -1 1 -1 1 0 1 -1 1 -1 1 0 -1 0 2 -2 
1 -1 1 -1 1 -1 1 -1 1 0 1 -1 1 -1 1 -1 
1 -1 1 -1 1 -1 1 -1 1 -1 1 0 1 -1 1 0 
1 -1 1 0 1 -1 1 0 1 -1 1 -1 1 -1 1 -1 
1 -1 1 -1 1 -1 1 0 1 -1 1 -1 1 -1 1 -1 
1 -1 1 -1 1 0 1 0 1 -1 1 -1 1 0 1 -1 
1 -1 1 -1 1 -1 1 0 1 -1 1 -1 1 -1 1 -1 
1 -1 1 -1 1 -1 1 -1 1 0 1 0 -1 0 2 -2 
1 0 -1 0 2 -2 1 -1 1 -1 1 0 -1 0 2 -2 
1 -1 1 -1 1 -1 1 0 1 -1 1 -1 1 0 1 -1 
0 -1 2 -2 1 -1 1 -1 1 -1 1 -1 1 -1 1 -1 
1 -1 1 -1 1 -1 1 -1 1 0 1 -1 1 -1 1 0 
0 -1 2 -2 1 -1 1 -1 1 -1 1 -1 1 0 1 -1 
1 -1 1 0 -1 0 2 -2 1 0 0 -1 2 -2 1 0 
1 -1 1 0 1 -1 1 0 1 -1 1 -1 1 -1 1 0 
1 -1 0 -1 2 -2 1 0 1 -1 1 -1 1 -1 1 0 
1 -1 1 0 1 -1 0 -1 2 -2 1 0 1 -1 1 0 
1 -1 1 -1 1 -1 1 -1 1 -1 1 -1 1 0 1 -1 
1 -1 1 -1 1 -1 1 -1 1 -1 1 -1 1 -1 1 -1 
1 0 1 -1 0 -1 2 -2 1 -1 1 -1 1 0 1 -1 
1 -1 1 -1 1 -1 1 -1 1 -1 1 -1 1 -1 1 -1 
1 -1 1 -1 0 -1 2 -2 1 0 1 -1 1 -1 1 0 
1 -1 1 -1 1 -1 0 -1 2 -2 1 -1 1 0 -1 0 
2 -2 1 0 1 -1 1 -1 1 -1 1 -1 1 -1 1 0 
1 -1 1 -1 1 -1 1 -1 1 0 1 -1 1 -1 1 0 
-1 0 2 -2 1 -1 1 0 1 -1 1 -1 1 -1 1 -1 
1 -1 1 -1 1 0 1 -1 1 0 -1 0 2 -2 1 0 
1 -1 1 0 1 -1 1 0 1 -1 1 -1 0 -1 2 -2 
1 -1 1 -1 1 -1 1 -1 1 -1 1 0 1 -1 1 -1 
1 -1 1 0 1 -1 1 -1 1 0 -1 0 2 -2 1 0 
1 -1 1 -1 0 -1 5052 4668 300 MP stroke
2 -2 1 -1 1 0 1 -1 1 -1 1 -1 1 0 1 -1 
1 -1 1 -1 1 -1 0 -1 2 -2 1 0 1 -1 1 0 
1 -1 1 -1 1 -1 1 -1 1 -1 1 -1 1 -1 1 -1 
1 -1 1 -1 1 0 1 -1 0 -1 2 -2 1 0 1 -1 
1 -1 1 -1 1 -1 1 -1 1 -1 1 -1 1 -1 1 0 
0 -2 2 -2 1 0 -1 0 2 -2 1 -1 1 -1 1 0 
1 -1 0 -1 2 -2 1 0 1 0 -1 0 2 -2 1 -1 
1 -1 1 -1 1 0 1 0 -1 0 2 -2 1 -1 1 -1 
1 0 1 -1 1 -1 1 -1 1 0 1 -1 0 -1 2 -2 
1 -1 1 0 1 -1 1 -1 1 -1 1 -1 1 -1 1 0 
1 -1 1 -1 1 -1 1 -1 1 -1 1 -1 0 -1 2 -2 
1 0 1 -1 1 -1 1 -1 1 0 1 -1 1 -1 1 -1 
1 -1 1 -1 1 -1 1 -1 0 -1 2 -2 1 0 -1 0 
2 -2 1 -1 1 -1 1 -1 1 -1 1 -1 1 -1 1 -1 
1 -1 1 -1 1 -1 1 0 1 -1 1 -1 0 -1 2 -2 
1 0 1 -1 0 -1 2 -2 1 -1 1 0 1 -1 1 -1 
1 -1 1 -1 1 0 1 -1 1 -1 1 -1 1 -1 1 -1 
1 0 1 -1 1 -1 1 -1 1 -1 1 -1 1 0 0 -1 
2 -2 1 -1 1 -1 1 0 1 -1 0 -1 2 -2 1 0 
1 -1 1 -1 1 0 1 -1 1 -1 1 -1 1 -1 1 0 
1 0 -1 0 2 -2 1 -1 1 0 0 -1 2 -2 1 -1 
1 -1 1 -1 1 -1 1 -1 1 -1 0 -1 2 -2 1 -1 
1 -1 1 -1 1 -1 1 -1 1 0 1 -1 1 -1 1 -1 
1 -1 1 -1 1 -1 1 -1 1 -1 1 -1 1 -1 1 -1 
1 -1 1 -1 1 -1 1 0 1 -1 1 -1 1 0 1 -1 
1 -1 1 -1 1 -1 1 0 1 -1 1 -1 1 -1 1 -1 
1 -1 1 0 1 -1 1 -1 0 -1 2 -2 1 -1 1 -1 
1 -1 1 -1 1 -1 1 0 1 -1 1 -1 1 -1 1 -1 
1 -1 1 -1 1 -1 1 -1 1 0 1 -1 1 -1 1 -1 
1 0 1 -1 1 -1 1 0 1 -1 1 -1 1 -1 1 -1 
1 -1 1 -1 1 -1 0 -1 3 -1 1 -1 1 -1 1 0 
-1 0 2 -2 1 0 1 -1 1 -1 1 0 1 -1 1 -1 
1 0 1 -1 1 -1 1 0 -1 0 2 -2 1 0 1 -1 
1 0 -1 0 2 -2 1 -1 1 -1 1 0 1 -1 1 -1 
1 -1 1 -1 1 -1 1 0 1 -1 1 -1 1 0 1 -1 
1 0 -1 0 2 -2 1 0 1 -1 1 -1 1 0 1 -1 
1 -1 1 0 1 -1 1 -1 1 -1 1 -1 1 0 1 -1 
1 0 1 -1 1 -1 4760 4926 300 MP stroke
1 -1 1 -1 1 0 1 -1 1 0 1 -1 1 -1 1 -1 
1 -1 1 -1 1 -1 1 0 1 -1 0 -1 2 -2 1 0 
1 -1 1 -1 1 -1 1 -1 1 -1 1 -1 1 -1 1 -1 
0 -1 2 -2 1 0 1 -1 1 -1 1 -1 1 0 1 -1 
1 -1 1 -1 1 -1 1 -1 1 -1 1 0 -1 0 2 -2 
1 0 1 -1 1 0 1 -1 1 -1 1 -1 1 0 1 -1 
1 -1 1 0 1 -1 1 -1 1 -1 1 0 -1 0 2 -2 
1 -1 0 -1 2 -2 1 0 1 -1 1 -1 1 -1 1 -1 
1 0 1 -1 1 -1 1 0 1 -1 1 -1 1 -1 1 0 
1 -1 1 -1 1 0 1 -1 1 0 1 -1 1 -1 1 0 
1 -1 1 -1 1 -1 1 -1 1 -1 1 -1 1 -1 1 -1 
1 0 1 -1 1 -1 1 -1 1 -1 1 -1 1 -1 1 -1 
1 -1 1 -1 1 -1 1 -1 1 0 1 -1 1 -1 1 0 
1 -1 1 -1 1 -1 1 0 0 -1 2 -2 1 0 1 -1 
0 -1 2 -2 1 0 1 -1 1 0 -1 0 2 -2 1 -1 
1 -1 1 -1 0 -1 2 -2 1 -1 1 0 1 -1 1 -1 
1 -1 1 -1 1 0 1 -1 1 -1 1 -1 1 0 0 -1 
2 -2 1 0 1 -1 1 -1 1 -1 1 -1 1 -1 1 -1 
1 -1 1 0 1 -1 1 -1 1 -1 1 0 -1 0 2 -2 
1 0 1 -1 1 0 1 -1 0 -1 2 -2 1 -1 1 0 
1 -1 1 -1 1 -1 1 -1 1 0 1 -1 1 0 -1 0 
2 -2 1 -1 1 0 -1 0 2 -2 1 0 1 -1 1 0 
1 -1 1 0 1 -1 1 -1 1 -1 1 -1 1 -1 1 -1 
1 0 1 -1 1 0 1 -1 1 -1 1 -1 1 0 1 -1 
1 0 0 -1 2 -2 1 0 1 -1 1 -1 1 -1 1 0 
1 -1 1 -1 1 -1 1 0 0 -1 2 -2 1 0 1 -1 
1 -1 1 0 1 -1 1 -1 0 -1 2 -2 1 -1 1 -1 
1 -1 1 -1 1 -1 1 -1 1 0 1 -1 1 -1 1 0 
1 -1 1 -1 1 -1 1 -1 1 -1 1 0 1 -1 1 -1 
1 0 1 -1 1 -1 1 0 1 -1 1 -1 1 0 -1 0 
2 -2 1 -1 1 -1 1 -1 1 -1 1 0 1 -1 1 0 
-1 0 2 -2 1 -1 1 0 -1 0 2 -2 1 0 1 -1 
1 -1 1 0 1 -1 1 -1 1 -1 1 0 1 -1 1 -1 
1 -1 1 -1 1 0 1 -1 1 -1 1 -1 1 0 1 -1 
1 0 1 -1 1 -1 1 0 1 -1 1 -1 1 0 1 -1 
1 -1 1 -1 1 0 1 0 1 0 1 -1 1 -1 1 -1 
1 0 1 -1 1 0 1 -1 1 -1 1 0 -1 0 2 -2 
1 0 -1 0 2 -2 4472 5162 300 MP stroke
1 0 1 -1 1 -1 1 0 1 -1 1 -1 1 -1 1 -1 
1 -1 1 0 1 -1 1 -1 1 0 1 -1 1 0 1 -1 
1 -1 1 -1 1 0 1 -1 0 -1 2 -2 1 0 1 -1 
1 0 0 -1 2 -2 1 0 1 -1 1 0 1 -1 1 -1 
1 -1 1 -1 1 -1 1 -1 1 -1 1 -1 1 0 1 -1 
1 -1 1 0 1 0 1 -1 1 -1 1 -1 1 -1 1 -1 
1 -1 1 -1 1 0 1 -1 1 -1 1 -1 1 0 1 -1 
1 -1 1 0 1 -1 1 0 1 -1 1 -1 1 0 1 -1 
1 -1 1 -1 1 -1 1 -1 1 -1 1 -1 1 0 -1 0 
2 -2 1 0 -1 0 2 -2 1 0 1 -1 1 0 1 -1 
1 -1 0 -1 2 -2 1 0 1 -1 1 0 1 -1 1 0 
1 -1 1 -1 1 -1 1 0 1 -1 1 -1 1 0 1 -1 
1 -1 1 0 0 -1 3 -1 1 0 1 -1 1 -1 1 0 
1 -1 1 0 1 -1 1 -1 1 -1 1 0 1 -1 1 -1 
1 -1 1 -1 1 0 1 -1 1 -1 1 -1 1 -1 1 -1 
1 0 1 -1 1 -1 1 0 -1 0 2 -2 1 0 1 -1 
1 -1 1 -1 1 -1 1 -1 1 0 1 -1 1 0 1 -1 
1 -1 1 0 -1 0 2 -2 1 0 1 -1 1 0 1 -1 
1 -1 1 0 1 -1 1 -1 1 -1 1 -1 1 -1 1 0 
1 -1 1 -1 1 -1 1 0 1 -1 1 -1 1 0 1 -1 
1 -1 1 -1 1 -1 1 0 -1 0 2 -2 1 0 1 -1 
1 0 1 -1 1 -1 1 -1 1 0 1 -1 1 0 1 -1 
1 0 1 -1 1 -1 1 -1 1 -1 1 0 1 -1 1 0 
1 -1 1 -1 0 -1 2 -2 1 0 1 -1 1 -1 1 0 
1 -1 1 -1 1 0 1 -1 1 -1 1 -1 1 -1 1 -1 
1 -1 1 -1 1 -1 1 -1 1 -1 1 -1 1 -1 1 -1 
1 -1 1 -1 1 0 1 -1 1 -1 1 -1 1 0 1 -1 
1 -1 1 0 1 -1 1 -1 1 0 1 -1 1 -1 1 0 
1 0 1 -1 1 -1 1 0 1 -1 1 0 1 0 1 -1 
1 -1 1 -1 1 -1 1 -1 1 -1 1 -1 1 0 1 -1 
1 -1 1 -1 1 -1 1 0 1 -1 1 -1 1 0 1 -1 
1 -1 1 0 1 -1 1 0 1 -1 1 -1 1 -1 2 -1 
1 -1 1 -1 1 0 1 -1 1 0 1 -1 1 -1 1 -1 
1 -1 1 -1 1 0 1 -1 1 0 1 -1 1 -1 1 0 
-1 0 2 -2 1 0 1 0 1 -1 1 0 1 -1 1 -1 
1 0 -1 0 2 -2 1 0 1 -1 1 0 1 -1 1 -1 
1 -1 1 -1 1 -1 1 0 1 -1 1 -1 1 0 1 -1 
1 -1 1 0 1 -1 4178 5381 300 MP stroke
1 -1 1 0 1 -1 1 0 1 -1 1 0 1 -1 1 -1 
1 -1 1 -1 1 -1 1 0 1 -1 1 0 1 -1 1 -1 
1 -1 1 0 1 -1 1 -1 1 -1 1 -1 1 -1 1 0 
1 -1 1 0 1 -1 1 0 1 -1 1 -1 1 -1 1 0 
1 -1 1 -1 1 -1 1 -1 1 0 1 -1 1 0 1 -1 
1 0 1 0 -1 0 2 -2 1 -1 1 0 1 0 1 -1 
1 -1 1 -1 1 0 1 -1 1 -1 1 0 1 -1 1 -1 
1 0 1 -1 1 -1 1 0 1 -1 1 -1 1 -1 1 0 
1 -1 1 -1 1 0 1 -1 1 -1 1 0 1 -1 1 0 
1 -1 1 -1 1 0 1 -1 1 -1 1 0 0 -1 2 -2 
1 0 1 0 1 -1 1 0 1 -1 1 -1 1 -1 1 0 
1 -1 1 -1 1 -1 1 0 1 -1 1 -1 1 0 1 -1 
1 0 1 -1 1 -1 1 -1 1 0 1 -1 1 -1 1 0 
1 -1 1 -1 1 -1 1 -1 1 -1 1 0 1 -1 1 -1 
1 0 1 -1 1 -1 1 0 1 -1 1 0 1 -1 1 0 
1 0 1 -1 1 0 1 -1 1 0 1 -1 1 0 1 -1 
1 -1 1 0 1 -1 1 -1 1 0 1 -1 1 -1 1 0 
1 -1 1 -1 1 -1 1 -1 1 -1 1 -1 1 -1 1 0 
1 -1 1 -1 1 0 1 -1 2 0 1 0 1 -1 1 0 
1 -1 1 -1 1 0 1 -1 1 0 1 -1 1 -1 1 -1 
1 0 1 -1 1 -1 1 -1 1 0 1 -1 1 0 1 0 
1 -1 1 -1 1 0 1 -1 1 -1 1 0 1 -1 1 -1 
1 0 1 -1 1 0 1 -1 1 -1 1 0 1 -1 1 -1 
1 0 1 -1 1 -1 1 -1 1 0 1 0 1 -1 1 -1 
1 0 1 -1 1 0 1 -1 1 -1 1 0 1 -1 1 -1 
1 0 1 -1 1 -1 1 0 1 -1 1 -1 1 0 1 -1 
1 -1 1 0 -1 0 2 -2 1 0 1 -1 1 0 1 -1 
1 -1 1 0 1 -1 1 0 1 -1 1 0 1 -1 1 -1 
1 -1 1 -1 1 0 1 -1 1 0 1 -1 1 0 1 0 
1 -1 1 -1 1 -1 1 0 -1 0 2 -2 1 0 1 -1 
0 -1 3 -1 1 -1 1 -1 1 0 1 0 1 -1 1 -1 
1 -1 1 -1 1 0 1 -1 1 0 1 0 1 -1 1 -1 
1 0 1 -1 1 0 1 -1 1 -1 1 -1 1 -1 1 -1 
1 -1 1 0 1 -1 1 -1 1 -1 1 0 1 -1 1 0 
1 -1 1 0 1 -1 1 -1 1 0 1 0 1 -1 1 -1 
1 -1 1 0 -1 0 2 -2 1 0 1 -1 1 -1 1 -1 
1 -1 1 0 1 -1 1 0 1 -1 1 0 1 -1 1 -1 
1 0 1 0 1 -1 3881 5577 300 MP stroke
1 0 1 -1 1 0 1 -1 1 -1 1 -1 1 -1 1 0 
1 -1 1 -1 1 0 1 -1 1 -1 1 0 1 -1 1 0 
1 -1 1 -1 1 0 1 -1 1 -1 1 -1 1 -1 1 0 
1 -1 1 -1 1 0 1 -1 1 -1 1 -1 1 0 1 -1 
1 0 1 -1 1 0 1 0 1 -1 1 -1 1 -1 1 -1 
1 -1 1 -1 1 -1 1 0 1 -1 1 -1 1 0 1 -1 
1 -1 1 -1 1 0 1 -1 1 -1 1 -1 1 0 -1 0 
2 -2 1 0 1 0 1 -1 1 -1 1 0 1 0 1 -1 
1 -1 1 -1 1 0 1 -1 1 -1 1 0 1 -1 1 0 
1 -1 1 -1 1 0 1 -1 1 0 1 -1 1 -1 1 0 
1 -1 1 -1 1 0 1 0 1 -1 1 0 -1 0 2 -2 
1 0 0 -1 2 -2 1 0 1 -1 1 0 1 -1 1 -1 
1 0 1 -1 1 0 1 -1 1 -1 1 0 1 -1 1 -1 
1 0 1 -1 1 -1 1 0 1 -1 1 -1 1 0 1 -1 
1 -1 1 0 1 -1 1 -1 1 0 1 -1 1 0 1 -1 
1 0 1 -1 1 0 1 -1 1 -1 1 0 1 -1 1 0 
1 0 1 -1 1 0 1 0 1 -1 1 -1 1 -1 1 0 
1 -1 1 0 1 -1 1 0 1 -1 1 -1 1 0 1 -1 
1 -1 1 0 1 -1 1 0 1 -1 1 0 1 -1 1 0 
1 -1 1 -1 1 0 1 -1 1 0 -1 0 2 -2 1 0 
1 -1 1 -1 1 0 1 -1 1 0 1 0 1 -1 1 0 
1 -1 1 -1 1 0 1 0 1 -1 1 -1 1 -1 1 0 
1 -1 1 0 1 -1 1 -1 1 0 1 -1 1 -1 1 0 
1 -1 1 0 1 -1 1 0 1 -1 1 0 1 -1 1 -1 
1 0 1 -1 1 -1 1 0 1 -1 1 -1 1 0 -1 0 
2 -2 1 0 1 -1 1 0 1 0 1 -1 1 -1 1 -1 
1 -1 1 0 1 -1 1 -1 1 0 1 -1 1 0 1 -1 
1 -1 1 0 1 -1 1 0 1 0 1 -1 1 -1 1 0 
1 -1 1 -1 1 -1 1 0 1 -1 1 -1 1 0 1 -1 
1 -1 1 0 1 -1 1 0 1 -1 1 0 1 -1 1 -1 
1 -1 1 -1 1 0 1 -1 1 -1 1 -1 1 -1 1 0 
1 -1 1 -1 1 0 1 -1 1 -1 1 -1 1 0 1 -1 
1 -1 1 0 1 -1 1 -1 1 -1 1 -1 1 -1 1 -1 
1 -1 1 0 1 -1 1 -1 1 0 1 -1 1 0 1 0 
1 -1 1 -1 1 0 1 0 1 -1 1 -1 1 0 1 -1 
1 0 1 -1 1 -1 1 -1 1 0 1 -1 1 -1 1 0 
1 0 1 -1 1 -1 1 0 1 -1 1 -1 1 0 1 0 
1 0 1 0 1 -1 3586 5765 300 MP stroke
1 0 1 -1 1 -1 1 -1 1 -1 1 0 1 0 1 -1 
1 0 1 0 1 -1 1 0 1 -1 1 -1 1 -1 1 0 
1 0 1 -1 1 -1 1 0 1 -1 1 0 1 -1 1 0 
1 -1 2 0 1 0 1 0 1 -1 1 0 1 -1 1 0 
1 0 1 -1 1 -1 1 0 -1 0 2 -2 1 0 1 0 
1 -1 1 -1 1 -1 1 0 1 -1 1 -1 1 0 1 -1 
1 -1 1 0 1 -1 1 0 1 -1 1 -1 1 0 1 -1 
1 0 1 -1 1 0 1 -1 1 0 1 -1 1 -1 1 -1 
1 0 1 0 1 -1 1 0 1 0 1 -1 1 -1 1 0 
1 -1 1 -1 1 0 1 -1 1 -1 1 0 1 -1 1 -1 
1 0 1 -1 1 -1 1 0 1 -1 1 0 1 -1 1 0 
1 -1 1 0 1 -1 1 -1 1 0 1 0 1 -1 1 0 
-1 0 3 -1 1 0 1 -1 1 0 1 0 1 -1 1 -1 
1 0 1 0 1 -1 1 -1 1 0 1 -1 1 -1 1 -1 
1 0 1 -1 1 -1 1 0 1 0 1 -1 1 -1 1 0 
1 -1 1 -1 1 -1 1 0 1 -1 1 0 1 0 1 -1 
1 -1 1 0 1 -1 1 0 1 -1 1 -1 1 0 1 0 
1 -1 1 0 1 0 1 -1 1 -1 1 0 1 -1 1 -1 
1 0 1 -1 1 0 1 -1 1 0 1 0 1 -1 1 0 
1 -1 1 -1 1 -1 1 0 1 -1 1 0 1 -1 1 0 
1 -1 1 0 1 -1 1 0 1 -1 1 -1 1 0 1 -1 
1 0 1 -1 1 0 1 -1 1 -1 1 0 1 -1 1 0 
1 -1 1 0 1 -1 1 -1 1 0 1 -1 1 -1 1 0 
1 -1 1 0 1 -1 1 -1 1 0 1 -1 1 0 1 -1 
1 0 1 -1 1 0 1 -1 1 0 1 -1 1 -1 1 -1 
1 0 1 0 1 -1 1 0 1 -1 1 -1 1 -1 1 0 
1 -1 1 0 1 0 -1 0 2 -2 1 -1 1 0 1 -1 
1 0 1 -1 1 0 1 0 1 -1 1 0 1 0 1 -1 
1 0 1 -1 1 0 1 0 1 0 1 -1 1 -1 1 0 
1 -1 1 0 1 0 1 -1 1 0 1 -1 2 0 1 -1 
1 0 1 -1 1 -1 1 0 1 -1 1 0 1 -1 2 0 
1 -1 1 0 1 -1 1 -1 1 -1 1 0 2 0 1 -1 
1 -1 1 -1 1 -1 1 0 1 0 1 -1 1 0 1 -1 
1 -1 1 0 1 -1 1 -1 1 -1 1 0 -1 0 2 -2 
1 0 1 0 1 -1 1 -1 1 0 1 0 1 -1 1 -1 
2 0 1 -1 1 0 1 -1 1 0 1 -1 1 0 1 0 
1 -1 1 0 1 0 1 -1 1 0 -1 0 2 -2 1 0 
1 -1 1 0 1 0 3286 5928 300 MP stroke
1 -1 1 -1 1 0 1 -1 1 -1 1 0 1 0 1 0 
1 -1 2 -1 2 0 0 -1 1 -1 1 0 1 -1 1 0 
1 -1 1 -1 1 0 1 -1 1 0 1 -1 1 -1 1 0 
1 -1 1 0 1 0 1 -1 1 0 1 -1 1 0 1 -1 
1 0 1 -1 1 0 1 0 1 -1 1 0 1 -1 1 0 
1 -1 1 0 1 -1 1 0 1 -1 1 0 1 0 1 0 
1 -1 1 -1 1 0 1 -1 1 -1 1 0 1 0 1 -1 
1 0 1 -1 1 0 1 0 1 -1 1 0 1 -1 1 -1 
1 0 1 -1 1 0 1 -1 1 -1 1 0 1 -1 1 0 
1 -1 1 0 1 -1 1 0 1 0 1 -1 1 0 1 -1 
1 0 1 -1 1 0 1 -1 1 0 1 0 1 -1 1 -1 
1 -1 1 -1 1 0 1 -1 1 -1 1 0 1 0 1 -1 
1 -1 1 0 1 -1 1 0 1 -1 1 -1 1 0 1 0 
1 -1 1 -1 1 0 1 -1 1 -1 1 0 1 -1 1 -1 
1 0 1 0 1 -1 1 0 1 0 1 0 1 -1 1 0 
1 -1 1 0 1 -1 1 0 1 -1 1 -1 1 0 1 -1 
1 0 1 0 1 -1 1 0 1 -1 1 -1 1 0 1 -1 
1 0 1 -1 1 -1 1 0 1 -1 1 -1 1 0 1 -1 
1 0 -1 0 3 -1 1 -1 1 0 1 -1 1 -1 1 0 
1 0 1 -1 1 0 1 -1 1 0 1 0 1 -1 1 0 
1 -1 1 0 1 -1 1 0 1 -1 1 0 1 -1 1 0 
1 0 1 -1 1 0 1 -1 1 -1 1 -1 1 0 1 0 
1 -1 1 0 1 -1 1 0 1 -1 1 -1 1 0 1 -1 
1 0 1 -1 1 0 1 -1 1 -1 1 -1 1 0 1 0 
1 -1 1 0 1 -1 1 0 1 0 1 -1 1 0 1 -1 
1 0 1 -1 1 0 1 -1 1 -1 1 0 1 -1 1 -1 
1 0 1 -1 1 0 1 -1 1 0 1 0 1 0 1 -1 
1 -1 1 0 1 0 1 -1 1 0 1 -1 1 0 1 -1 
1 0 1 0 1 -1 1 0 1 -1 1 0 1 -1 1 0 
1 0 1 -1 1 0 1 -1 1 0 1 -1 1 0 1 0 
-1 0 3 -1 1 -1 1 0 1 -1 1 0 1 0 1 -1 
1 -1 1 0 1 -1 1 0 1 -1 1 0 1 -1 1 0 
1 -1 1 -1 1 0 1 0 1 -1 1 0 1 0 2 0 
1 -1 1 0 1 -1 1 0 1 -1 1 0 1 -1 1 0 
2 -1 1 0 1 -1 1 0 1 0 1 0 1 -1 1 0 
1 -1 1 0 1 -1 1 0 1 0 1 -1 1 0 1 -1 
1 0 1 -1 1 0 1 -1 1 0 1 0 1 -1 1 0 
1 0 1 -1 1 -1 2984 6077 300 MP stroke
1 0 1 -1 1 0 1 -1 1 0 1 -1 1 0 1 -1 
1 0 1 -1 1 0 1 -1 1 0 1 0 1 -1 1 0 
1 0 1 -1 1 0 1 0 1 -1 1 -1 1 0 1 -1 
1 0 1 -1 1 0 1 0 1 -1 1 0 1 -1 1 -1 
1 0 1 0 1 -1 1 -1 1 0 1 0 1 -1 1 0 
1 -1 1 0 1 -1 1 0 1 0 1 -1 1 0 1 -1 
1 -1 2 0 1 -1 1 0 1 -1 1 0 1 -1 1 0 
1 -1 1 0 1 0 1 -1 1 -1 1 0 1 -1 1 0 
1 -1 1 0 1 0 1 -1 1 0 1 -1 1 0 1 -1 
1 0 1 0 1 -1 1 0 1 -1 1 0 1 -1 1 0 
-1 0 3 -1 1 -1 1 0 1 0 1 -1 1 0 1 -1 
1 -1 1 0 1 -1 1 0 1 -1 1 0 1 -1 1 0 
1 0 1 -1 1 0 1 -1 1 0 -1 0 3 -1 1 0 
1 0 1 -1 1 0 1 -1 1 0 1 -1 1 0 1 -1 
1 0 1 0 1 -1 1 0 1 -1 1 0 1 -1 1 0 
1 0 1 -1 1 -1 1 0 1 0 -1 0 3 -1 1 -1 
1 -1 1 0 1 -1 1 -1 1 0 -1 0 3 -1 1 0 
1 -1 2 0 1 0 1 -1 1 -1 1 0 2 0 2 0 
1 -1 1 -1 1 0 1 0 1 -1 1 -1 1 0 1 0 
1 -1 1 0 1 -1 1 -1 1 0 1 0 1 0 1 -1 
1 0 1 0 1 0 1 -1 1 0 1 -1 1 -1 1 0 
1 0 1 -1 1 0 1 -1 1 0 1 0 1 -1 1 0 
1 -1 1 0 1 -1 1 -1 1 0 1 0 1 -1 1 0 
1 0 1 -1 1 -1 1 0 1 0 1 -1 1 0 1 -1 
1 0 1 -1 1 0 1 -1 1 0 1 0 1 0 1 -1 
1 0 1 -1 1 0 1 0 1 -1 1 0 1 -1 1 0 
1 -1 1 0 1 -1 1 0 -1 0 3 -1 1 0 1 -1 
1 0 1 -1 1 0 1 0 1 -1 1 0 1 -1 1 0 
1 0 1 -1 1 0 1 -1 1 0 1 -1 1 0 1 -1 
1 0 1 -1 1 -1 1 0 1 -1 1 -1 1 0 1 -1 
1 0 1 0 1 -1 1 0 1 -1 1 0 1 0 1 -1 
1 0 1 -1 1 0 1 0 1 0 1 -1 1 0 1 -1 
1 0 1 0 1 -1 1 0 1 0 1 -1 1 0 1 0 
1 -1 1 0 1 0 1 -1 1 0 1 0 1 -1 1 -1 
1 0 1 -1 1 -1 1 0 2 0 1 -1 1 0 1 0 
1 -1 1 0 1 0 1 -1 1 0 1 0 1 -1 1 0 
1 -1 2 0 1 0 1 0 1 -1 1 0 1 -1 1 0 
1 -1 1 0 1 0 2679 6209 300 MP stroke
1 -1 1 -1 1 0 1 0 1 0 1 -1 1 0 1 0 
1 -1 1 0 1 -1 1 0 1 -1 1 0 1 0 1 -1 
1 -1 1 0 1 -1 1 0 1 -1 1 0 1 0 1 -1 
1 -1 1 0 1 0 1 -1 2 0 1 0 1 -1 1 0 
1 -1 1 0 1 0 1 -1 1 0 1 -1 1 0 1 -1 
1 0 1 -1 1 0 1 -1 1 0 1 -1 1 0 1 0 
1 -1 1 0 1 -1 1 0 1 0 1 0 1 -1 1 0 
1 -1 1 0 1 0 1 0 1 -1 1 0 1 -1 1 0 
1 0 1 -1 1 0 1 -1 1 0 1 0 1 -1 1 0 
1 0 1 -1 1 0 1 -1 1 -1 1 0 1 -1 1 -1 
1 0 1 0 1 -1 1 0 1 -1 2 0 1 0 1 -1 
1 0 1 -1 1 0 1 0 1 -1 1 0 1 0 1 -1 
1 0 1 -1 1 0 1 0 1 -1 1 -1 1 0 1 -1 
1 0 1 -1 1 0 1 -1 1 0 3 -1 1 0 1 0 
1 -1 1 0 1 -1 1 0 1 0 1 -1 1 0 1 -1 
1 0 1 -1 1 0 1 0 1 -1 1 0 1 -1 1 0 
1 -1 1 0 1 -1 1 0 1 0 1 -1 1 0 2 0 
1 -1 1 -1 1 0 1 -1 1 0 1 -1 1 0 1 0 
1 0 1 -1 1 0 1 -1 1 0 1 -1 1 0 1 -1 
1 0 1 -1 1 0 1 0 1 -1 1 0 1 0 1 -1 
1 0 1 0 1 -1 1 0 1 0 1 -1 1 0 1 0 
1 -1 1 0 1 0 1 -1 1 0 1 -1 1 0 1 0 
1 -1 1 -1 1 0 1 -1 1 0 1 0 1 -1 1 0 
1 0 1 0 1 -1 1 0 1 -1 1 0 1 0 1 0 
1 0 1 -1 1 0 1 -1 1 0 1 0 1 -1 1 0 
1 0 1 0 1 -1 1 0 1 0 -1 0 3 -1 1 0 
1 -1 1 0 1 0 1 -1 1 0 -1 0 3 -1 1 0 
1 0 1 -1 2 0 1 0 1 0 1 -1 1 0 2 -1 
1 0 1 0 1 0 1 -1 1 0 1 -1 1 0 1 0 
1 0 1 -1 1 -1 1 0 1 -1 1 0 1 -1 1 0 
1 0 1 -1 1 0 2 0 1 -1 1 0 1 0 1 -1 
1 0 1 0 1 0 1 -1 1 0 1 0 1 -1 1 0 
1 -1 2 0 1 0 1 -1 1 0 2 0 1 0 1 -1 
1 0 1 0 1 0 1 -1 1 0 1 0 1 0 1 -1 
1 0 1 0 1 0 1 0 1 0 1 -1 1 0 1 -1 
1 0 1 -1 1 0 1 0 1 -1 1 0 1 -1 1 0 
1 0 1 -1 1 0 1 0 2 -1 1 0 1 0 1 -1 
1 0 1 0 1 -1 2369 6325 300 MP stroke
1 -1 1 0 1 0 1 0 1 0 1 -1 1 0 1 -1 
1 0 1 0 1 -1 1 0 1 -1 1 0 1 -1 1 0 
1 0 1 0 1 0 1 -1 1 0 1 0 1 0 1 -1 
1 0 1 0 1 -1 3 0 1 0 1 -1 2 0 1 0 
1 0 1 0 1 -1 1 0 1 0 1 -1 1 0 1 -1 
1 0 2 0 1 0 1 0 1 -1 1 0 1 0 1 -1 
1 0 1 -1 1 0 1 0 2 -1 1 0 1 0 1 -1 
1 0 1 0 2 0 2 0 1 -1 1 0 1 0 1 -1 
1 0 1 -1 1 0 1 0 1 0 1 -1 1 0 -1 0 
3 -1 1 0 1 0 1 0 1 -1 1 0 1 0 1 0 
1 -1 1 0 1 0 1 -1 1 0 1 -1 1 0 1 0 
1 -1 1 0 1 -1 1 0 1 0 2 0 1 -1 1 0 
1 0 1 -1 1 0 1 -1 1 0 1 0 1 0 1 -1 
1 0 1 0 1 0 1 -1 1 0 2 0 1 -1 1 -1 
1 0 1 -1 1 0 1 0 1 0 1 -1 1 0 1 -1 
1 0 1 0 1 -1 1 0 1 0 1 0 1 -1 1 0 
1 0 1 -1 1 0 1 0 1 0 1 -1 1 0 1 -1 
1 0 1 0 1 -1 1 -1 1 0 1 0 1 -1 1 0 
1 0 1 -1 1 0 1 0 2 0 1 -1 1 0 1 0 
-1 0 3 -1 2 0 1 0 1 -1 2 0 1 0 1 0 
1 -1 1 0 1 0 1 -1 3 0 1 0 1 -1 1 0 
1 0 1 -1 1 0 1 0 1 -1 1 0 1 -1 1 0 
1 0 1 -1 1 0 1 -1 1 -1 1 0 1 -1 1 0 
1 0 1 -1 1 0 1 0 1 -1 1 0 2 0 1 -1 
1 0 1 0 1 -1 1 0 1 0 3 0 1 -1 1 0 
1 0 1 -1 2 0 1 0 1 -1 1 0 3 0 1 -1 
2 0 1 -1 1 0 1 0 -1 0 3 -1 1 0 1 -1 
1 0 1 0 -1 0 3 -1 1 0 1 0 1 -1 1 0 
1 0 1 0 1 -1 1 0 1 -1 1 0 1 0 1 0 
2 0 1 -1 2 0 1 0 1 -1 1 0 1 0 1 -1 
1 0 1 0 1 0 1 -1 1 -1 1 0 1 0 1 0 
1 -1 1 0 1 0 1 0 1 -1 1 0 1 0 2 0 
1 -1 1 0 1 0 1 0 1 0 1 0 1 -1 1 0 
1 0 1 0 1 -1 1 0 1 0 1 -1 1 0 1 0 
1 0 1 -1 1 0 1 0 1 0 -1 0 3 -1 1 0 
1 0 2 0 1 -1 1 0 2 0 1 0 1 -1 2 0 
1 0 1 -1 1 0 1 0 1 0 1 -1 1 0 1 0 
1 -1 1 0 1 0 2043 6419 300 MP stroke
1 0 1 0 1 -1 1 0 1 0 2 0 1 -1 1 0 
2 0 1 0 1 0 1 -1 1 0 2 0 1 0 1 -1 
2 0 1 0 1 -1 1 0 2 0 1 0 1 -1 1 0 
1 0 1 -1 1 0 2 -1 1 0 1 -1 1 0 2 0 
1 -1 1 0 1 0 1 0 1 0 1 -1 1 0 1 0 
1 -1 1 0 2 0 1 -1 1 0 1 0 1 -1 1 0 
1 -1 1 0 1 0 1 0 1 -1 2 0 1 0 1 -1 
2 0 0 -1 2 0 1 0 1 0 1 -1 1 0 1 0 
1 0 1 -1 1 0 1 0 1 -1 1 0 1 0 1 -1 
2 0 1 0 1 -1 1 0 1 0 1 0 1 0 1 -1 
1 0 1 0 1 -1 1 0 1 0 -1 0 3 -1 1 0 
1 0 1 -1 1 0 1 0 2 0 1 -1 1 0 1 -1 
1 0 1 0 1 0 1 -1 1 0 1 0 1 0 1 -1 
1 0 1 0 1 -1 1 0 1 0 1 -1 1 0 1 0 
1 -1 2 0 1 0 1 0 1 0 2 -1 1 0 2 0 
1 0 1 0 1 -1 1 0 1 0 1 0 1 -1 2 0 
1 0 1 -1 1 0 1 0 1 0 1 -1 1 0 1 0 
1 0 1 -1 1 0 1 0 1 -1 1 0 1 0 2 0 
1 -1 1 0 1 0 1 -1 1 0 1 0 2 -1 1 0 
1 0 1 -1 1 0 2 0 1 0 1 -1 1 0 1 0 
1 0 1 0 1 -1 1 0 4 0 2 0 1 0 1 -1 
1 0 3 0 1 0 1 0 1 0 1 -1 2 0 1 0 
1 0 2 0 1 -1 1 0 1 0 1 0 -1 0 3 -1 
4 0 1 0 1 0 1 0 1 -1 1 0 1 0 1 -1 
2 0 1 0 1 0 -1 0 3 -1 1 0 2 0 1 0 
2 -1 2 0 1 0 1 0 2 0 1 0 1 0 -1 0 
3 -1 1 0 1 0 1 0 1 -1 1 0 2 0 1 0 
1 0 1 0 1 0 1 -1 1 0 1 0 1 0 1 0 
-1 0 3 -1 1 0 2 0 2 0 1 0 1 -1 3 -1 
2 0 1 0 1 0 1 -1 1 0 1 0 1 0 1 -1 
1 0 1 0 3 0 1 0 1 -1 2 0 1 0 1 0 
1 0 1 -1 1 0 1 0 1 0 1 0 2 0 1 -1 
1 0 1 0 1 0 1 -1 1 0 1 0 2 -1 3 0 
1 0 1 0 1 0 -1 0 3 -1 1 0 1 0 2 0 
1 -1 2 0 3 0 1 -1 1 0 2 0 1 0 1 0 
1 -1 1 0 2 0 1 0 2 0 1 -1 1 0 4 0 
1 0 1 0 1 -1 1 0 1 0 1 0 1 -1 1 0 
3 0 1 0 1 0 1684 6494 300 MP stroke
1 -1 1 0 1 0 2 0 1 0 1 -1 1 0 2 0 
1 0 1 -1 1 0 1 0 1 0 2 -1 1 0 1 0 
3 0 1 0 -1 0 4 -1 1 0 1 0 2 0 2 -1 
1 0 1 0 1 0 1 0 -1 0 3 -1 1 0 1 0 
1 0 2 -1 1 0 1 0 2 0 1 -1 2 0 1 0 
1 0 1 0 1 -1 2 0 5 0 1 0 1 0 1 -1 
1 0 1 0 2 0 2 0 1 0 1 -1 1 0 1 0 
1 -1 4 0 1 0 3 0 1 0 2 0 2 0 0 -1 
2 0 1 0 3 0 1 0 1 0 1 -1 1 0 1 0 
2 0 2 0 2 -1 1 0 3 0 2 0 3 -1 2 0 
1 0 1 0 2 -1 2 0 1 0 1 0 1 -1 1 0 
1 0 1 0 2 0 1 -1 2 0 1 0 1 0 1 0 
-1 0 3 -1 3 0 4 0 1 0 1 0 2 0 2 -1 
1 0 2 0 2 0 1 0 -1 0 3 -1 1 0 6 0 
1 0 2 0 1 -1 1 0 1 0 1 0 1 -1 2 0 
1 0 1 0 1 0 1 -1 1 0 1 0 1 0 -1 0 
3 -1 1 0 1 0 -1 0 3 -1 1 0 2 0 2 0 
2 0 0 -1 2 0 1 0 1 0 1 -1 1 0 1 0 
1 0 1 0 1 0 1 -1 2 0 1 0 1 0 2 0 
2 0 3 -1 1 0 2 0 3 0 1 -1 1 0 5 0 
3 0 1 0 1 -1 2 0 2 0 2 0 1 0 1 -1 
1 0 1 0 4 0 3 -1 2 0 1 0 4 0 6 0 
2 0 2 0 1 -1 6 0 1 0 3 0 1 -1 2 0 
2 0 1 0 1 0 -1 0 3 -1 1 0 7 0 1 -1 
1 0 1 0 2 0 1 0 3 0 2 -1 4 0 4 0 
2 0 2 0 1 0 1 -1 1 0 1 0 3 0 1 0 
1 -1 1 0 1 0 4 0 2 0 1 0 1 0 2 -1 
1 0 4 0 2 0 2 0 1 -1 3 0 1 0 2 0 
1 0 1 0 4 0 4 -1 1 0 3 0 1 0 2 0 
1 0 3 0 2 -1 1 0 3 0 3 0 3 0 1 -1 
4 0 4 0 1 0 1 0 1 0 -1 0 8 -1 1 0 
1 0 10 0 5 0 1 0 2 -1 2 0 1 0 2 0 
1 0 3 0 2 -1 2 0 2 0 1 0 1 0 4 0 
1 -1 1 0 1 0 3 0 1 0 10 0 1 0 -1 0 
3 -1 4 0 3 0 9 0 1 0 4 -1 2 0 1 0 
9 0 1 0 5 0 2 0 1 -1 7 0 1 0 1 0 
3 0 1 0 10 0 4 -1 5 0 2 0 1 0 2 0 
7 0 1 -1 3 0 1123 6551 300 MP stroke
7 0 7 0 1 0 13 0 11 0 11 0 1 -1 3 0 
1 0 3 0 3 0 14 0 11 0 0 -1 1037 6553 15 MP stroke
gr

c8
0 sg
 959 6681 mt 
( ) s
9193  328 mt 
( ) s
gs 1009 201 8234 6353 rc
/c9 { 0.000000 0.000000 1.000000 sr} bdef
c9
0 -41 21 0 0 -41 37 0 0 -41 11 0 0 -41 83 0 
0 -42 61 0 0 -41 15 0 0 -41 15 0 0 -41 11 0 
0 -42 24 0 0 -41 30 0 0 -41 37 0 0 -41 37 0 
0 -42 12 0 0 -41 1 0 0 -41 19 0 0 -41 20 0 
0 -42 16 0 0 -41 27 0 0 -41 14 0 0 -41 2 0 
0 -42 11 0 0 -41 9 0 0 -41 21 0 0 -41 49 0 
0 -42 17 0 0 -41 55 0 0 -41 34 0 0 -41 60 0 
0 -42 43 0 0 -41 45 0 0 -41 23 0 0 -41 22 0 
0 -42 19 0 0 -41 2 0 0 -41 11 0 0 -41 21 0 
0 -42 9 0 0 -41 47 0 0 -41 18 0 0 -41 12 0 
0 -42 9 0 0 -41 4 0 0 -41 1 0 0 -41 43 0 
0 -42 39 0 0 -41 92 0 0 -41 36 0 0 -41 21 0 
0 -42 77 0 0 -41 35 0 0 -41 27 0 0 -41 42 0 
0 -42 28 0 0 -41 31 0 0 -41 26 0 0 -41 37 0 
0 -42 2 0 0 -41 84 0 0 -41 38 0 0 -41 4 0 
0 -42 8 0 0 -41 68 0 0 -41 27 0 0 -41 16 0 
0 -42 2 0 0 -41 11 0 0 -41 26 0 0 -41 134 0 
0 -42 65 0 0 -41 14 0 0 -41 7 0 0 -41 12 0 
0 -42 18 0 0 -41 23 0 0 -41 3 0 0 -41 15 0 
0 -42 91 0 0 -41 50 0 0 -41 7 0 0 -41 13 0 
0 -41 58 0 0 -42 44 0 0 -41 90 0 0 -41 5 0 
0 -41 94 0 0 -42 205 0 0 -41 18 0 0 -41 29 0 
0 -83 6 0 0 -41 1 0 0 -41 110 0 0 -41 124 0 
0 -42 30 0 0 -41 19 0 0 -41 7 0 0 -41 9 0 
0 -42 30 0 0 -41 63 0 0 -41 4 0 0 -41 47 0 
0 -42 70 0 0 -41 97 0 0 -41 34 0 0 -41 15 0 
0 -42 17 0 0 -41 26 0 0 -41 33 0 0 -41 6 0 
0 -42 83 0 0 -41 18 0 0 -41 22 0 0 -41 11 0 
0 -42 36 0 0 -41 14 0 0 -41 197 0 0 -41 82 0 
0 -42 63 0 0 -41 16 0 0 -41 13 0 0 -41 58 0 
0 -42 37 0 0 -41 5 0 0 -41 9 0 0 -41 27 0 
0 -42 87 0 0 -41 72 0 0 -41 31 0 0 -41 60 0 
0 -42 83 0 0 -41 98 0 0 -41 11 0 0 -41 173 0 
0 -42 181 0 0 -41 18 0 0 -41 25 0 0 -41 38 0 
0 -42 7 0 0 -41 109 0 0 -41 46 0 0 -41 46 0 
0 -42 92 0 0 -41 29 0 0 -41 29 0 0 -41 211 0 
0 -42 11 0 0 -41 112 0 0 -41 279 0 0 -41 248 0 
0 -42 104 0 0 -41 2586 6429 300 MP stroke
198 0 0 -41 123 0 0 -41 542 0 0 -42 1723 6553 7 MP stroke
gr

c9
1 sg
0 890 3851 0 0 -890 5332 6494 4 MP
PP
-3851 0 0 890 3851 0 0 -890 5332 6494 5 MP stroke
4 w
DO
SO
6 w
0 sg
5332 6494 mt 9183 6494 L
5332 5604 mt 9183 5604 L
5332 6494 mt 5332 5604 L
9183 6494 mt 9183 5604 L
5332 6494 mt 9183 6494 L
5332 6494 mt 5332 5604 L
5332 6494 mt 9183 6494 L
5332 5604 mt 9183 5604 L
5332 6494 mt 5332 5604 L
9183 6494 mt 9183 5604 L
5791 5963 mt 
(Intrinsic Distribution) s
gs 5332 5604 3852 891 rc
c8
353 0 5402 5836 2 MP stroke
gr

c8
0 sg
5791 6390 mt 
(Observed Population) s
gs 5332 5604 3852 891 rc
c9
353 0 5402 6261 2 MP stroke
gr

c9

end %%Color Dict

eplot
%%EndObject

epage
end

showpage

%%Trailer
%%EOF
